n;valid;K_v_3:R_3;K_v_8:R_8;K_v_6:R_6;K_v_0:R_0;K_v_7:R_7;K_v_9;K_v_6;K_v_4:R_4;K_v_2:R_2;K_v_5;K_v_8;K_v_7;K_v_2;K_v_5:R_5;K_v_9:R_9;K_v_1;K_v_4;K_v_3;K_v_1:R_1;K_v_0;
;;0..1;0..1;0..1;0..1;0..1;0..1;0..1;0..1;0..1;0..1;0..1;0..1;0..1;0..1;0..1;0..1;0..1;0..1;0..1;0..1;
0;OK;1;1;1;1;1;0;0;1;1;0;0;0;0;1;1;0;0;0;1;0;
