
VAR

operon = 0 2 (NS) ;
mucuB = 0 1 (NS) ;

REG

free [(! (mucuB>=1))]=>
 operon
 ;
alg [(operon>=1)]=>
 operon
 ;
prod [(operon>=1)]=>
 mucuB
 ;

PARA

# Parameters for operon

K_operon = 0..2;
K_operon:alg = 0..2;
K_operon:free = 0..2;
K_operon:alg:free = 0..2;


# Parameters for mucuB

K_mucuB = 0..1;
K_mucuB:prod = 0..1;


CTL
[
(((operon=0)->AG((! (operon=2))))&((operon=2)->AG((! (operon=0))))),
]
NO FAIRCTL FORMULA

======================
# Number of effective parameterizations : 324
======================




########### Result of model checking ###########
# Total number of models: 324
# Selected models: 56
# Computation time: 2s232ms
Models have been written in ./pseudomonas-running_example.csv
################################################

