n°;valid;K_ATP;K_ATP:PHOXa;K_ATP:glyc1;K_ATP:noLBPa;K_ATP:nonLBPa;K_ATP:PHOXa:glyc1;K_ATP:glyc1:glyc2;K_ATP:glyc1:noLBPa;K_ATP:glyc1:nonLBPa;K_ATP:PHOXa:noLBPa;K_ATP:noLBPa:nonLBPa;K_ATP:PHOXa:nonLBPa;K_ATP:glyc1:glyc2:nonLBPa;K_ATP:PHOXa:noLBPa:nonLBPa;K_ATP:glyc1:noLBPa:nonLBPa;K_ATP:PHOXa:glyc1:noLBPa;K_ATP:PHOXa:glyc1:nonLBPa;K_ATP:PHOXa:glyc1:glyc2;K_ATP:glyc1:glyc2:noLBPa;K_ATP:glyc1:glyc2:noLBPa:nonLBPa;K_ATP:PHOXa:glyc1:glyc2:noLBPa;K_ATP:PHOXa:glyc1:noLBPa:nonLBPa;K_ATP:PHOXa:glyc1:glyc2:nonLBPa;K_ATP:PHOXa:glyc1:glyc2:noLBPa:nonLBPa;K_O2:exO2o;K_O2:PHOXo:exO2o;K_GLYC:glc1;K_GLYC:COF:glc1;K_GLYC:glc1:noGR;K_GLYC:COF:glc1:noGR;K_nLBP;K_nLBP:AAS;K_nLBP:PPP;K_nLBP:AAS:PPP;K_LBP;K_LBP:noBOX;K_LBP:LS:noBOX;K_NCD:aa1;K_NCD:KREBSd:aa1;K_FERM;K_FERM:EP;K_NADH;K_NADH:FERMn;K_NADH:GLYCf;K_NADH:KREBSn;K_NADH:PHOXn;K_NADH:noAAS;K_NADH:FERMn:GLYCf;K_NADH:GLYCf:KREBSn;K_NADH:GLYCf:PHOXn;K_NADH:GLYCf:noAAS;K_NADH:FERMn:KREBSn;K_NADH:KREBSn:PHOXn;K_NADH:KREBSn:noAAS;K_NADH:FERMn:PHOXn;K_NADH:PHOXn:noAAS;K_NADH:FERMn:noAAS;K_NADH:FERMn:KREBSn:noAAS;K_NADH:GLYCf:PHOXn:noAAS;K_NADH:FERMn:GLYCf:PHOXn;K_NADH:FERMn:PHOXn:noAAS;K_NADH:FERMn:GLYCf:noAAS;K_NADH:KREBSn:PHOXn:noAAS;K_NADH:FERMn:GLYCf:KREBSn;K_NADH:FERMn:KREBSn:PHOXn;K_NADH:GLYCf:KREBSn:PHOXn;K_NADH:GLYCf:KREBSn:noAAS;K_NADH:FERMn:GLYCf:KREBSn:noAAS;K_NADH:FERMn:GLYCf:KREBSn:PHOXn;K_NADH:FERMn:GLYCf:PHOXn:noAAS;K_NADH:GLYCf:KREBSn:PHOXn:noAAS;K_NADH:FERMn:KREBSn:PHOXn:noAAS;K_NADH:FERMn:GLYCf:KREBSn:PHOXn:noAAS;K_KREBS;K_KREBS:AnO;K_KREBS:BOX;K_KREBS:AnO:SAT;K_PHOX;K_PHOX:PC;Error explanation
;;0..0;1..1;0..0;0..0;0..0;1..1;1..1;2..2;0..0;2..2;0..0;1..1;1..1;2..2;2..2;2..2;1..1;1..1;2..2;2..2;2..2;2..2;2..2;2..2;0..1;0..1;0..2;0..2;0..2;0..2;0..0;1..1;1..1;1..1;0..0;0..0;1..1;0..2;0..2;0..0;1..1;0..0;0..0;0..0;0..0;0..0;0..0;0..0;0..0;0..0;0..0;0..0;2..2;0..0;0..0;0..0;0..0;0..0;0..0;2..2;0..0;0..0;2..2;2..2;2..2;2..2;0..0;2..2;2..2;2..2;2..2;2..2;2..2;0..0;1..1;0..0;2..2;0..0;1..1;;
1;OK;0;1;0;0;0;1;1;2;0;2;0;1;1;2;2;2;1;1;2;2;2;2;2;2;0;0;0;0;0;0;0;1;1;1;0;0;1;0;0;0;1;0;0;0;0;0;0;0;0;0;0;0;2;0;0;0;0;0;0;2;0;0;2;2;2;2;0;2;2;2;2;2;2;0;1;0;2;0;1;
2;OK;0;1;0;0;0;1;1;2;0;2;0;1;1;2;2;2;1;1;2;2;2;2;2;2;0;1;0;0;0;0;0;1;1;1;0;0;1;0;0;0;1;0;0;0;0;0;0;0;0;0;0;0;2;0;0;0;0;0;0;2;0;0;2;2;2;2;0;2;2;2;2;2;2;0;1;0;2;0;1;
3;OK;0;1;0;0;0;1;1;2;0;2;0;1;1;2;2;2;1;1;2;2;2;2;2;2;1;1;0;0;0;0;0;1;1;1;0;0;1;0;0;0;1;0;0;0;0;0;0;0;0;0;0;0;2;0;0;0;0;0;0;2;0;0;2;2;2;2;0;2;2;2;2;2;2;0;1;0;2;0;1;
4;OK;0;1;0;0;0;1;1;2;0;2;0;1;1;2;2;2;1;1;2;2;2;2;2;2;0;0;0;0;0;1;0;1;1;1;0;0;1;0;0;0;1;0;0;0;0;0;0;0;0;0;0;0;2;0;0;0;0;0;0;2;0;0;2;2;2;2;0;2;2;2;2;2;2;0;1;0;2;0;1;
5;OK;0;1;0;0;0;1;1;2;0;2;0;1;1;2;2;2;1;1;2;2;2;2;2;2;0;1;0;0;0;1;0;1;1;1;0;0;1;0;0;0;1;0;0;0;0;0;0;0;0;0;0;0;2;0;0;0;0;0;0;2;0;0;2;2;2;2;0;2;2;2;2;2;2;0;1;0;2;0;1;
6;OK;0;1;0;0;0;1;1;2;0;2;0;1;1;2;2;2;1;1;2;2;2;2;2;2;1;1;0;0;0;1;0;1;1;1;0;0;1;0;0;0;1;0;0;0;0;0;0;0;0;0;0;0;2;0;0;0;0;0;0;2;0;0;2;2;2;2;0;2;2;2;2;2;2;0;1;0;2;0;1;
7;OK;0;1;0;0;0;1;1;2;0;2;0;1;1;2;2;2;1;1;2;2;2;2;2;2;0;0;0;1;0;1;0;1;1;1;0;0;1;0;0;0;1;0;0;0;0;0;0;0;0;0;0;0;2;0;0;0;0;0;0;2;0;0;2;2;2;2;0;2;2;2;2;2;2;0;1;0;2;0;1;
8;OK;0;1;0;0;0;1;1;2;0;2;0;1;1;2;2;2;1;1;2;2;2;2;2;2;0;1;0;1;0;1;0;1;1;1;0;0;1;0;0;0;1;0;0;0;0;0;0;0;0;0;0;0;2;0;0;0;0;0;0;2;0;0;2;2;2;2;0;2;2;2;2;2;2;0;1;0;2;0;1;
9;OK;0;1;0;0;0;1;1;2;0;2;0;1;1;2;2;2;1;1;2;2;2;2;2;2;1;1;0;1;0;1;0;1;1;1;0;0;1;0;0;0;1;0;0;0;0;0;0;0;0;0;0;0;2;0;0;0;0;0;0;2;0;0;2;2;2;2;0;2;2;2;2;2;2;0;1;0;2;0;1;
10;OK;0;1;0;0;0;1;1;2;0;2;0;1;1;2;2;2;1;1;2;2;2;2;2;2;0;1;0;0;1;1;0;1;1;1;0;0;1;0;0;0;1;0;0;0;0;0;0;0;0;0;0;0;2;0;0;0;0;0;0;2;0;0;2;2;2;2;0;2;2;2;2;2;2;0;1;0;2;0;1;
11;OK;0;1;0;0;0;1;1;2;0;2;0;1;1;2;2;2;1;1;2;2;2;2;2;2;1;1;0;0;1;1;0;1;1;1;0;0;1;0;0;0;1;0;0;0;0;0;0;0;0;0;0;0;2;0;0;0;0;0;0;2;0;0;2;2;2;2;0;2;2;2;2;2;2;0;1;0;2;0;1;
12;OK;0;1;0;0;0;1;1;2;0;2;0;1;1;2;2;2;1;1;2;2;2;2;2;2;0;1;0;1;1;1;0;1;1;1;0;0;1;0;0;0;1;0;0;0;0;0;0;0;0;0;0;0;2;0;0;0;0;0;0;2;0;0;2;2;2;2;0;2;2;2;2;2;2;0;1;0;2;0;1;
13;OK;0;1;0;0;0;1;1;2;0;2;0;1;1;2;2;2;1;1;2;2;2;2;2;2;1;1;0;1;1;1;0;1;1;1;0;0;1;0;0;0;1;0;0;0;0;0;0;0;0;0;0;0;2;0;0;0;0;0;0;2;0;0;2;2;2;2;0;2;2;2;2;2;2;0;1;0;2;0;1;
14;OK;0;1;0;0;0;1;1;2;0;2;0;1;1;2;2;2;1;1;2;2;2;2;2;2;0;1;1;1;1;1;0;1;1;1;0;0;1;0;0;0;1;0;0;0;0;0;0;0;0;0;0;0;2;0;0;0;0;0;0;2;0;0;2;2;2;2;0;2;2;2;2;2;2;0;1;0;2;0;1;
15;OK;0;1;0;0;0;1;1;2;0;2;0;1;1;2;2;2;1;1;2;2;2;2;2;2;1;1;1;1;1;1;0;1;1;1;0;0;1;0;0;0;1;0;0;0;0;0;0;0;0;0;0;0;2;0;0;0;0;0;0;2;0;0;2;2;2;2;0;2;2;2;2;2;2;0;1;0;2;0;1;
16;OK;0;1;0;0;0;1;1;2;0;2;0;1;1;2;2;2;1;1;2;2;2;2;2;2;0;0;0;0;0;2;0;1;1;1;0;0;1;0;0;0;1;0;0;0;0;0;0;0;0;0;0;0;2;0;0;0;0;0;0;2;0;0;2;2;2;2;0;2;2;2;2;2;2;0;1;0;2;0;1;
17;OK;0;1;0;0;0;1;1;2;0;2;0;1;1;2;2;2;1;1;2;2;2;2;2;2;0;1;0;0;0;2;0;1;1;1;0;0;1;0;0;0;1;0;0;0;0;0;0;0;0;0;0;0;2;0;0;0;0;0;0;2;0;0;2;2;2;2;0;2;2;2;2;2;2;0;1;0;2;0;1;
18;OK;0;1;0;0;0;1;1;2;0;2;0;1;1;2;2;2;1;1;2;2;2;2;2;2;1;1;0;0;0;2;0;1;1;1;0;0;1;0;0;0;1;0;0;0;0;0;0;0;0;0;0;0;2;0;0;0;0;0;0;2;0;0;2;2;2;2;0;2;2;2;2;2;2;0;1;0;2;0;1;
19;OK;0;1;0;0;0;1;1;2;0;2;0;1;1;2;2;2;1;1;2;2;2;2;2;2;0;0;0;1;0;2;0;1;1;1;0;0;1;0;0;0;1;0;0;0;0;0;0;0;0;0;0;0;2;0;0;0;0;0;0;2;0;0;2;2;2;2;0;2;2;2;2;2;2;0;1;0;2;0;1;
20;OK;0;1;0;0;0;1;1;2;0;2;0;1;1;2;2;2;1;1;2;2;2;2;2;2;0;1;0;1;0;2;0;1;1;1;0;0;1;0;0;0;1;0;0;0;0;0;0;0;0;0;0;0;2;0;0;0;0;0;0;2;0;0;2;2;2;2;0;2;2;2;2;2;2;0;1;0;2;0;1;
21;OK;0;1;0;0;0;1;1;2;0;2;0;1;1;2;2;2;1;1;2;2;2;2;2;2;1;1;0;1;0;2;0;1;1;1;0;0;1;0;0;0;1;0;0;0;0;0;0;0;0;0;0;0;2;0;0;0;0;0;0;2;0;0;2;2;2;2;0;2;2;2;2;2;2;0;1;0;2;0;1;
22;OK;0;1;0;0;0;1;1;2;0;2;0;1;1;2;2;2;1;1;2;2;2;2;2;2;0;0;0;2;0;2;0;1;1;1;0;0;1;0;0;0;1;0;0;0;0;0;0;0;0;0;0;0;2;0;0;0;0;0;0;2;0;0;2;2;2;2;0;2;2;2;2;2;2;0;1;0;2;0;1;
23;OK;0;1;0;0;0;1;1;2;0;2;0;1;1;2;2;2;1;1;2;2;2;2;2;2;0;1;0;2;0;2;0;1;1;1;0;0;1;0;0;0;1;0;0;0;0;0;0;0;0;0;0;0;2;0;0;0;0;0;0;2;0;0;2;2;2;2;0;2;2;2;2;2;2;0;1;0;2;0;1;
24;OK;0;1;0;0;0;1;1;2;0;2;0;1;1;2;2;2;1;1;2;2;2;2;2;2;1;1;0;2;0;2;0;1;1;1;0;0;1;0;0;0;1;0;0;0;0;0;0;0;0;0;0;0;2;0;0;0;0;0;0;2;0;0;2;2;2;2;0;2;2;2;2;2;2;0;1;0;2;0;1;
25;OK;0;1;0;0;0;1;1;2;0;2;0;1;1;2;2;2;1;1;2;2;2;2;2;2;0;1;0;0;1;2;0;1;1;1;0;0;1;0;0;0;1;0;0;0;0;0;0;0;0;0;0;0;2;0;0;0;0;0;0;2;0;0;2;2;2;2;0;2;2;2;2;2;2;0;1;0;2;0;1;
26;OK;0;1;0;0;0;1;1;2;0;2;0;1;1;2;2;2;1;1;2;2;2;2;2;2;1;1;0;0;1;2;0;1;1;1;0;0;1;0;0;0;1;0;0;0;0;0;0;0;0;0;0;0;2;0;0;0;0;0;0;2;0;0;2;2;2;2;0;2;2;2;2;2;2;0;1;0;2;0;1;
27;OK;0;1;0;0;0;1;1;2;0;2;0;1;1;2;2;2;1;1;2;2;2;2;2;2;0;1;0;1;1;2;0;1;1;1;0;0;1;0;0;0;1;0;0;0;0;0;0;0;0;0;0;0;2;0;0;0;0;0;0;2;0;0;2;2;2;2;0;2;2;2;2;2;2;0;1;0;2;0;1;
28;OK;0;1;0;0;0;1;1;2;0;2;0;1;1;2;2;2;1;1;2;2;2;2;2;2;1;1;0;1;1;2;0;1;1;1;0;0;1;0;0;0;1;0;0;0;0;0;0;0;0;0;0;0;2;0;0;0;0;0;0;2;0;0;2;2;2;2;0;2;2;2;2;2;2;0;1;0;2;0;1;
29;OK;0;1;0;0;0;1;1;2;0;2;0;1;1;2;2;2;1;1;2;2;2;2;2;2;0;1;1;1;1;2;0;1;1;1;0;0;1;0;0;0;1;0;0;0;0;0;0;0;0;0;0;0;2;0;0;0;0;0;0;2;0;0;2;2;2;2;0;2;2;2;2;2;2;0;1;0;2;0;1;
30;OK;0;1;0;0;0;1;1;2;0;2;0;1;1;2;2;2;1;1;2;2;2;2;2;2;1;1;1;1;1;2;0;1;1;1;0;0;1;0;0;0;1;0;0;0;0;0;0;0;0;0;0;0;2;0;0;0;0;0;0;2;0;0;2;2;2;2;0;2;2;2;2;2;2;0;1;0;2;0;1;
31;OK;0;1;0;0;0;1;1;2;0;2;0;1;1;2;2;2;1;1;2;2;2;2;2;2;0;1;0;2;1;2;0;1;1;1;0;0;1;0;0;0;1;0;0;0;0;0;0;0;0;0;0;0;2;0;0;0;0;0;0;2;0;0;2;2;2;2;0;2;2;2;2;2;2;0;1;0;2;0;1;
32;OK;0;1;0;0;0;1;1;2;0;2;0;1;1;2;2;2;1;1;2;2;2;2;2;2;1;1;0;2;1;2;0;1;1;1;0;0;1;0;0;0;1;0;0;0;0;0;0;0;0;0;0;0;2;0;0;0;0;0;0;2;0;0;2;2;2;2;0;2;2;2;2;2;2;0;1;0;2;0;1;
33;OK;0;1;0;0;0;1;1;2;0;2;0;1;1;2;2;2;1;1;2;2;2;2;2;2;0;1;1;2;1;2;0;1;1;1;0;0;1;0;0;0;1;0;0;0;0;0;0;0;0;0;0;0;2;0;0;0;0;0;0;2;0;0;2;2;2;2;0;2;2;2;2;2;2;0;1;0;2;0;1;
34;OK;0;1;0;0;0;1;1;2;0;2;0;1;1;2;2;2;1;1;2;2;2;2;2;2;1;1;1;2;1;2;0;1;1;1;0;0;1;0;0;0;1;0;0;0;0;0;0;0;0;0;0;0;2;0;0;0;0;0;0;2;0;0;2;2;2;2;0;2;2;2;2;2;2;0;1;0;2;0;1;
35;OK;0;1;0;0;0;1;1;2;0;2;0;1;1;2;2;2;1;1;2;2;2;2;2;2;0;1;0;0;2;2;0;1;1;1;0;0;1;0;0;0;1;0;0;0;0;0;0;0;0;0;0;0;2;0;0;0;0;0;0;2;0;0;2;2;2;2;0;2;2;2;2;2;2;0;1;0;2;0;1;
36;OK;0;1;0;0;0;1;1;2;0;2;0;1;1;2;2;2;1;1;2;2;2;2;2;2;1;1;0;0;2;2;0;1;1;1;0;0;1;0;0;0;1;0;0;0;0;0;0;0;0;0;0;0;2;0;0;0;0;0;0;2;0;0;2;2;2;2;0;2;2;2;2;2;2;0;1;0;2;0;1;
37;OK;0;1;0;0;0;1;1;2;0;2;0;1;1;2;2;2;1;1;2;2;2;2;2;2;0;1;0;1;2;2;0;1;1;1;0;0;1;0;0;0;1;0;0;0;0;0;0;0;0;0;0;0;2;0;0;0;0;0;0;2;0;0;2;2;2;2;0;2;2;2;2;2;2;0;1;0;2;0;1;
38;OK;0;1;0;0;0;1;1;2;0;2;0;1;1;2;2;2;1;1;2;2;2;2;2;2;1;1;0;1;2;2;0;1;1;1;0;0;1;0;0;0;1;0;0;0;0;0;0;0;0;0;0;0;2;0;0;0;0;0;0;2;0;0;2;2;2;2;0;2;2;2;2;2;2;0;1;0;2;0;1;
39;OK;0;1;0;0;0;1;1;2;0;2;0;1;1;2;2;2;1;1;2;2;2;2;2;2;0;1;1;1;2;2;0;1;1;1;0;0;1;0;0;0;1;0;0;0;0;0;0;0;0;0;0;0;2;0;0;0;0;0;0;2;0;0;2;2;2;2;0;2;2;2;2;2;2;0;1;0;2;0;1;
40;OK;0;1;0;0;0;1;1;2;0;2;0;1;1;2;2;2;1;1;2;2;2;2;2;2;1;1;1;1;2;2;0;1;1;1;0;0;1;0;0;0;1;0;0;0;0;0;0;0;0;0;0;0;2;0;0;0;0;0;0;2;0;0;2;2;2;2;0;2;2;2;2;2;2;0;1;0;2;0;1;
41;OK;0;1;0;0;0;1;1;2;0;2;0;1;1;2;2;2;1;1;2;2;2;2;2;2;0;1;0;2;2;2;0;1;1;1;0;0;1;0;0;0;1;0;0;0;0;0;0;0;0;0;0;0;2;0;0;0;0;0;0;2;0;0;2;2;2;2;0;2;2;2;2;2;2;0;1;0;2;0;1;
42;OK;0;1;0;0;0;1;1;2;0;2;0;1;1;2;2;2;1;1;2;2;2;2;2;2;1;1;0;2;2;2;0;1;1;1;0;0;1;0;0;0;1;0;0;0;0;0;0;0;0;0;0;0;2;0;0;0;0;0;0;2;0;0;2;2;2;2;0;2;2;2;2;2;2;0;1;0;2;0;1;
43;OK;0;1;0;0;0;1;1;2;0;2;0;1;1;2;2;2;1;1;2;2;2;2;2;2;0;1;1;2;2;2;0;1;1;1;0;0;1;0;0;0;1;0;0;0;0;0;0;0;0;0;0;0;2;0;0;0;0;0;0;2;0;0;2;2;2;2;0;2;2;2;2;2;2;0;1;0;2;0;1;
44;OK;0;1;0;0;0;1;1;2;0;2;0;1;1;2;2;2;1;1;2;2;2;2;2;2;1;1;1;2;2;2;0;1;1;1;0;0;1;0;0;0;1;0;0;0;0;0;0;0;0;0;0;0;2;0;0;0;0;0;0;2;0;0;2;2;2;2;0;2;2;2;2;2;2;0;1;0;2;0;1;
45;OK;0;1;0;0;0;1;1;2;0;2;0;1;1;2;2;2;1;1;2;2;2;2;2;2;0;1;2;2;2;2;0;1;1;1;0;0;1;0;0;0;1;0;0;0;0;0;0;0;0;0;0;0;2;0;0;0;0;0;0;2;0;0;2;2;2;2;0;2;2;2;2;2;2;0;1;0;2;0;1;
46;OK;0;1;0;0;0;1;1;2;0;2;0;1;1;2;2;2;1;1;2;2;2;2;2;2;1;1;2;2;2;2;0;1;1;1;0;0;1;0;0;0;1;0;0;0;0;0;0;0;0;0;0;0;2;0;0;0;0;0;0;2;0;0;2;2;2;2;0;2;2;2;2;2;2;0;1;0;2;0;1;
47;OK;0;1;0;0;0;1;1;2;0;2;0;1;1;2;2;2;1;1;2;2;2;2;2;2;0;0;0;0;0;0;0;1;1;1;0;0;1;0;1;0;1;0;0;0;0;0;0;0;0;0;0;0;2;0;0;0;0;0;0;2;0;0;2;2;2;2;0;2;2;2;2;2;2;0;1;0;2;0;1;
48;OK;0;1;0;0;0;1;1;2;0;2;0;1;1;2;2;2;1;1;2;2;2;2;2;2;0;1;0;0;0;0;0;1;1;1;0;0;1;0;1;0;1;0;0;0;0;0;0;0;0;0;0;0;2;0;0;0;0;0;0;2;0;0;2;2;2;2;0;2;2;2;2;2;2;0;1;0;2;0;1;
49;OK;0;1;0;0;0;1;1;2;0;2;0;1;1;2;2;2;1;1;2;2;2;2;2;2;1;1;0;0;0;0;0;1;1;1;0;0;1;0;1;0;1;0;0;0;0;0;0;0;0;0;0;0;2;0;0;0;0;0;0;2;0;0;2;2;2;2;0;2;2;2;2;2;2;0;1;0;2;0;1;
50;OK;0;1;0;0;0;1;1;2;0;2;0;1;1;2;2;2;1;1;2;2;2;2;2;2;0;0;0;0;0;1;0;1;1;1;0;0;1;0;1;0;1;0;0;0;0;0;0;0;0;0;0;0;2;0;0;0;0;0;0;2;0;0;2;2;2;2;0;2;2;2;2;2;2;0;1;0;2;0;1;
51;OK;0;1;0;0;0;1;1;2;0;2;0;1;1;2;2;2;1;1;2;2;2;2;2;2;0;1;0;0;0;1;0;1;1;1;0;0;1;0;1;0;1;0;0;0;0;0;0;0;0;0;0;0;2;0;0;0;0;0;0;2;0;0;2;2;2;2;0;2;2;2;2;2;2;0;1;0;2;0;1;
52;OK;0;1;0;0;0;1;1;2;0;2;0;1;1;2;2;2;1;1;2;2;2;2;2;2;1;1;0;0;0;1;0;1;1;1;0;0;1;0;1;0;1;0;0;0;0;0;0;0;0;0;0;0;2;0;0;0;0;0;0;2;0;0;2;2;2;2;0;2;2;2;2;2;2;0;1;0;2;0;1;
53;OK;0;1;0;0;0;1;1;2;0;2;0;1;1;2;2;2;1;1;2;2;2;2;2;2;0;0;0;1;0;1;0;1;1;1;0;0;1;0;1;0;1;0;0;0;0;0;0;0;0;0;0;0;2;0;0;0;0;0;0;2;0;0;2;2;2;2;0;2;2;2;2;2;2;0;1;0;2;0;1;
54;OK;0;1;0;0;0;1;1;2;0;2;0;1;1;2;2;2;1;1;2;2;2;2;2;2;0;1;0;1;0;1;0;1;1;1;0;0;1;0;1;0;1;0;0;0;0;0;0;0;0;0;0;0;2;0;0;0;0;0;0;2;0;0;2;2;2;2;0;2;2;2;2;2;2;0;1;0;2;0;1;
55;OK;0;1;0;0;0;1;1;2;0;2;0;1;1;2;2;2;1;1;2;2;2;2;2;2;1;1;0;1;0;1;0;1;1;1;0;0;1;0;1;0;1;0;0;0;0;0;0;0;0;0;0;0;2;0;0;0;0;0;0;2;0;0;2;2;2;2;0;2;2;2;2;2;2;0;1;0;2;0;1;
56;OK;0;1;0;0;0;1;1;2;0;2;0;1;1;2;2;2;1;1;2;2;2;2;2;2;0;1;0;0;1;1;0;1;1;1;0;0;1;0;1;0;1;0;0;0;0;0;0;0;0;0;0;0;2;0;0;0;0;0;0;2;0;0;2;2;2;2;0;2;2;2;2;2;2;0;1;0;2;0;1;
57;OK;0;1;0;0;0;1;1;2;0;2;0;1;1;2;2;2;1;1;2;2;2;2;2;2;1;1;0;0;1;1;0;1;1;1;0;0;1;0;1;0;1;0;0;0;0;0;0;0;0;0;0;0;2;0;0;0;0;0;0;2;0;0;2;2;2;2;0;2;2;2;2;2;2;0;1;0;2;0;1;
58;OK;0;1;0;0;0;1;1;2;0;2;0;1;1;2;2;2;1;1;2;2;2;2;2;2;0;1;0;1;1;1;0;1;1;1;0;0;1;0;1;0;1;0;0;0;0;0;0;0;0;0;0;0;2;0;0;0;0;0;0;2;0;0;2;2;2;2;0;2;2;2;2;2;2;0;1;0;2;0;1;
59;OK;0;1;0;0;0;1;1;2;0;2;0;1;1;2;2;2;1;1;2;2;2;2;2;2;1;1;0;1;1;1;0;1;1;1;0;0;1;0;1;0;1;0;0;0;0;0;0;0;0;0;0;0;2;0;0;0;0;0;0;2;0;0;2;2;2;2;0;2;2;2;2;2;2;0;1;0;2;0;1;
60;OK;0;1;0;0;0;1;1;2;0;2;0;1;1;2;2;2;1;1;2;2;2;2;2;2;0;1;1;1;1;1;0;1;1;1;0;0;1;0;1;0;1;0;0;0;0;0;0;0;0;0;0;0;2;0;0;0;0;0;0;2;0;0;2;2;2;2;0;2;2;2;2;2;2;0;1;0;2;0;1;
61;OK;0;1;0;0;0;1;1;2;0;2;0;1;1;2;2;2;1;1;2;2;2;2;2;2;1;1;1;1;1;1;0;1;1;1;0;0;1;0;1;0;1;0;0;0;0;0;0;0;0;0;0;0;2;0;0;0;0;0;0;2;0;0;2;2;2;2;0;2;2;2;2;2;2;0;1;0;2;0;1;
62;OK;0;1;0;0;0;1;1;2;0;2;0;1;1;2;2;2;1;1;2;2;2;2;2;2;0;0;0;0;0;2;0;1;1;1;0;0;1;0;1;0;1;0;0;0;0;0;0;0;0;0;0;0;2;0;0;0;0;0;0;2;0;0;2;2;2;2;0;2;2;2;2;2;2;0;1;0;2;0;1;
63;OK;0;1;0;0;0;1;1;2;0;2;0;1;1;2;2;2;1;1;2;2;2;2;2;2;0;1;0;0;0;2;0;1;1;1;0;0;1;0;1;0;1;0;0;0;0;0;0;0;0;0;0;0;2;0;0;0;0;0;0;2;0;0;2;2;2;2;0;2;2;2;2;2;2;0;1;0;2;0;1;
64;OK;0;1;0;0;0;1;1;2;0;2;0;1;1;2;2;2;1;1;2;2;2;2;2;2;1;1;0;0;0;2;0;1;1;1;0;0;1;0;1;0;1;0;0;0;0;0;0;0;0;0;0;0;2;0;0;0;0;0;0;2;0;0;2;2;2;2;0;2;2;2;2;2;2;0;1;0;2;0;1;
65;OK;0;1;0;0;0;1;1;2;0;2;0;1;1;2;2;2;1;1;2;2;2;2;2;2;0;0;0;1;0;2;0;1;1;1;0;0;1;0;1;0;1;0;0;0;0;0;0;0;0;0;0;0;2;0;0;0;0;0;0;2;0;0;2;2;2;2;0;2;2;2;2;2;2;0;1;0;2;0;1;
66;OK;0;1;0;0;0;1;1;2;0;2;0;1;1;2;2;2;1;1;2;2;2;2;2;2;0;1;0;1;0;2;0;1;1;1;0;0;1;0;1;0;1;0;0;0;0;0;0;0;0;0;0;0;2;0;0;0;0;0;0;2;0;0;2;2;2;2;0;2;2;2;2;2;2;0;1;0;2;0;1;
67;OK;0;1;0;0;0;1;1;2;0;2;0;1;1;2;2;2;1;1;2;2;2;2;2;2;1;1;0;1;0;2;0;1;1;1;0;0;1;0;1;0;1;0;0;0;0;0;0;0;0;0;0;0;2;0;0;0;0;0;0;2;0;0;2;2;2;2;0;2;2;2;2;2;2;0;1;0;2;0;1;
68;OK;0;1;0;0;0;1;1;2;0;2;0;1;1;2;2;2;1;1;2;2;2;2;2;2;0;0;0;2;0;2;0;1;1;1;0;0;1;0;1;0;1;0;0;0;0;0;0;0;0;0;0;0;2;0;0;0;0;0;0;2;0;0;2;2;2;2;0;2;2;2;2;2;2;0;1;0;2;0;1;
69;OK;0;1;0;0;0;1;1;2;0;2;0;1;1;2;2;2;1;1;2;2;2;2;2;2;0;1;0;2;0;2;0;1;1;1;0;0;1;0;1;0;1;0;0;0;0;0;0;0;0;0;0;0;2;0;0;0;0;0;0;2;0;0;2;2;2;2;0;2;2;2;2;2;2;0;1;0;2;0;1;
70;OK;0;1;0;0;0;1;1;2;0;2;0;1;1;2;2;2;1;1;2;2;2;2;2;2;1;1;0;2;0;2;0;1;1;1;0;0;1;0;1;0;1;0;0;0;0;0;0;0;0;0;0;0;2;0;0;0;0;0;0;2;0;0;2;2;2;2;0;2;2;2;2;2;2;0;1;0;2;0;1;
71;OK;0;1;0;0;0;1;1;2;0;2;0;1;1;2;2;2;1;1;2;2;2;2;2;2;0;1;0;0;1;2;0;1;1;1;0;0;1;0;1;0;1;0;0;0;0;0;0;0;0;0;0;0;2;0;0;0;0;0;0;2;0;0;2;2;2;2;0;2;2;2;2;2;2;0;1;0;2;0;1;
72;OK;0;1;0;0;0;1;1;2;0;2;0;1;1;2;2;2;1;1;2;2;2;2;2;2;1;1;0;0;1;2;0;1;1;1;0;0;1;0;1;0;1;0;0;0;0;0;0;0;0;0;0;0;2;0;0;0;0;0;0;2;0;0;2;2;2;2;0;2;2;2;2;2;2;0;1;0;2;0;1;
73;OK;0;1;0;0;0;1;1;2;0;2;0;1;1;2;2;2;1;1;2;2;2;2;2;2;0;1;0;1;1;2;0;1;1;1;0;0;1;0;1;0;1;0;0;0;0;0;0;0;0;0;0;0;2;0;0;0;0;0;0;2;0;0;2;2;2;2;0;2;2;2;2;2;2;0;1;0;2;0;1;
74;OK;0;1;0;0;0;1;1;2;0;2;0;1;1;2;2;2;1;1;2;2;2;2;2;2;1;1;0;1;1;2;0;1;1;1;0;0;1;0;1;0;1;0;0;0;0;0;0;0;0;0;0;0;2;0;0;0;0;0;0;2;0;0;2;2;2;2;0;2;2;2;2;2;2;0;1;0;2;0;1;
75;OK;0;1;0;0;0;1;1;2;0;2;0;1;1;2;2;2;1;1;2;2;2;2;2;2;0;1;1;1;1;2;0;1;1;1;0;0;1;0;1;0;1;0;0;0;0;0;0;0;0;0;0;0;2;0;0;0;0;0;0;2;0;0;2;2;2;2;0;2;2;2;2;2;2;0;1;0;2;0;1;
76;OK;0;1;0;0;0;1;1;2;0;2;0;1;1;2;2;2;1;1;2;2;2;2;2;2;1;1;1;1;1;2;0;1;1;1;0;0;1;0;1;0;1;0;0;0;0;0;0;0;0;0;0;0;2;0;0;0;0;0;0;2;0;0;2;2;2;2;0;2;2;2;2;2;2;0;1;0;2;0;1;
77;OK;0;1;0;0;0;1;1;2;0;2;0;1;1;2;2;2;1;1;2;2;2;2;2;2;0;1;0;2;1;2;0;1;1;1;0;0;1;0;1;0;1;0;0;0;0;0;0;0;0;0;0;0;2;0;0;0;0;0;0;2;0;0;2;2;2;2;0;2;2;2;2;2;2;0;1;0;2;0;1;
78;OK;0;1;0;0;0;1;1;2;0;2;0;1;1;2;2;2;1;1;2;2;2;2;2;2;1;1;0;2;1;2;0;1;1;1;0;0;1;0;1;0;1;0;0;0;0;0;0;0;0;0;0;0;2;0;0;0;0;0;0;2;0;0;2;2;2;2;0;2;2;2;2;2;2;0;1;0;2;0;1;
79;OK;0;1;0;0;0;1;1;2;0;2;0;1;1;2;2;2;1;1;2;2;2;2;2;2;0;1;1;2;1;2;0;1;1;1;0;0;1;0;1;0;1;0;0;0;0;0;0;0;0;0;0;0;2;0;0;0;0;0;0;2;0;0;2;2;2;2;0;2;2;2;2;2;2;0;1;0;2;0;1;
80;OK;0;1;0;0;0;1;1;2;0;2;0;1;1;2;2;2;1;1;2;2;2;2;2;2;1;1;1;2;1;2;0;1;1;1;0;0;1;0;1;0;1;0;0;0;0;0;0;0;0;0;0;0;2;0;0;0;0;0;0;2;0;0;2;2;2;2;0;2;2;2;2;2;2;0;1;0;2;0;1;
81;OK;0;1;0;0;0;1;1;2;0;2;0;1;1;2;2;2;1;1;2;2;2;2;2;2;0;1;0;0;2;2;0;1;1;1;0;0;1;0;1;0;1;0;0;0;0;0;0;0;0;0;0;0;2;0;0;0;0;0;0;2;0;0;2;2;2;2;0;2;2;2;2;2;2;0;1;0;2;0;1;
82;OK;0;1;0;0;0;1;1;2;0;2;0;1;1;2;2;2;1;1;2;2;2;2;2;2;1;1;0;0;2;2;0;1;1;1;0;0;1;0;1;0;1;0;0;0;0;0;0;0;0;0;0;0;2;0;0;0;0;0;0;2;0;0;2;2;2;2;0;2;2;2;2;2;2;0;1;0;2;0;1;
83;OK;0;1;0;0;0;1;1;2;0;2;0;1;1;2;2;2;1;1;2;2;2;2;2;2;0;1;0;1;2;2;0;1;1;1;0;0;1;0;1;0;1;0;0;0;0;0;0;0;0;0;0;0;2;0;0;0;0;0;0;2;0;0;2;2;2;2;0;2;2;2;2;2;2;0;1;0;2;0;1;
84;OK;0;1;0;0;0;1;1;2;0;2;0;1;1;2;2;2;1;1;2;2;2;2;2;2;1;1;0;1;2;2;0;1;1;1;0;0;1;0;1;0;1;0;0;0;0;0;0;0;0;0;0;0;2;0;0;0;0;0;0;2;0;0;2;2;2;2;0;2;2;2;2;2;2;0;1;0;2;0;1;
85;OK;0;1;0;0;0;1;1;2;0;2;0;1;1;2;2;2;1;1;2;2;2;2;2;2;0;1;1;1;2;2;0;1;1;1;0;0;1;0;1;0;1;0;0;0;0;0;0;0;0;0;0;0;2;0;0;0;0;0;0;2;0;0;2;2;2;2;0;2;2;2;2;2;2;0;1;0;2;0;1;
86;OK;0;1;0;0;0;1;1;2;0;2;0;1;1;2;2;2;1;1;2;2;2;2;2;2;1;1;1;1;2;2;0;1;1;1;0;0;1;0;1;0;1;0;0;0;0;0;0;0;0;0;0;0;2;0;0;0;0;0;0;2;0;0;2;2;2;2;0;2;2;2;2;2;2;0;1;0;2;0;1;
87;OK;0;1;0;0;0;1;1;2;0;2;0;1;1;2;2;2;1;1;2;2;2;2;2;2;0;1;0;2;2;2;0;1;1;1;0;0;1;0;1;0;1;0;0;0;0;0;0;0;0;0;0;0;2;0;0;0;0;0;0;2;0;0;2;2;2;2;0;2;2;2;2;2;2;0;1;0;2;0;1;
88;OK;0;1;0;0;0;1;1;2;0;2;0;1;1;2;2;2;1;1;2;2;2;2;2;2;1;1;0;2;2;2;0;1;1;1;0;0;1;0;1;0;1;0;0;0;0;0;0;0;0;0;0;0;2;0;0;0;0;0;0;2;0;0;2;2;2;2;0;2;2;2;2;2;2;0;1;0;2;0;1;
89;OK;0;1;0;0;0;1;1;2;0;2;0;1;1;2;2;2;1;1;2;2;2;2;2;2;0;1;1;2;2;2;0;1;1;1;0;0;1;0;1;0;1;0;0;0;0;0;0;0;0;0;0;0;2;0;0;0;0;0;0;2;0;0;2;2;2;2;0;2;2;2;2;2;2;0;1;0;2;0;1;
90;OK;0;1;0;0;0;1;1;2;0;2;0;1;1;2;2;2;1;1;2;2;2;2;2;2;1;1;1;2;2;2;0;1;1;1;0;0;1;0;1;0;1;0;0;0;0;0;0;0;0;0;0;0;2;0;0;0;0;0;0;2;0;0;2;2;2;2;0;2;2;2;2;2;2;0;1;0;2;0;1;
91;OK;0;1;0;0;0;1;1;2;0;2;0;1;1;2;2;2;1;1;2;2;2;2;2;2;0;1;2;2;2;2;0;1;1;1;0;0;1;0;1;0;1;0;0;0;0;0;0;0;0;0;0;0;2;0;0;0;0;0;0;2;0;0;2;2;2;2;0;2;2;2;2;2;2;0;1;0;2;0;1;
92;OK;0;1;0;0;0;1;1;2;0;2;0;1;1;2;2;2;1;1;2;2;2;2;2;2;1;1;2;2;2;2;0;1;1;1;0;0;1;0;1;0;1;0;0;0;0;0;0;0;0;0;0;0;2;0;0;0;0;0;0;2;0;0;2;2;2;2;0;2;2;2;2;2;2;0;1;0;2;0;1;
93;OK;0;1;0;0;0;1;1;2;0;2;0;1;1;2;2;2;1;1;2;2;2;2;2;2;0;0;0;0;0;0;0;1;1;1;0;0;1;1;1;0;1;0;0;0;0;0;0;0;0;0;0;0;2;0;0;0;0;0;0;2;0;0;2;2;2;2;0;2;2;2;2;2;2;0;1;0;2;0;1;
94;OK;0;1;0;0;0;1;1;2;0;2;0;1;1;2;2;2;1;1;2;2;2;2;2;2;0;1;0;0;0;0;0;1;1;1;0;0;1;1;1;0;1;0;0;0;0;0;0;0;0;0;0;0;2;0;0;0;0;0;0;2;0;0;2;2;2;2;0;2;2;2;2;2;2;0;1;0;2;0;1;
95;OK;0;1;0;0;0;1;1;2;0;2;0;1;1;2;2;2;1;1;2;2;2;2;2;2;1;1;0;0;0;0;0;1;1;1;0;0;1;1;1;0;1;0;0;0;0;0;0;0;0;0;0;0;2;0;0;0;0;0;0;2;0;0;2;2;2;2;0;2;2;2;2;2;2;0;1;0;2;0;1;
96;OK;0;1;0;0;0;1;1;2;0;2;0;1;1;2;2;2;1;1;2;2;2;2;2;2;0;0;0;0;0;1;0;1;1;1;0;0;1;1;1;0;1;0;0;0;0;0;0;0;0;0;0;0;2;0;0;0;0;0;0;2;0;0;2;2;2;2;0;2;2;2;2;2;2;0;1;0;2;0;1;
97;OK;0;1;0;0;0;1;1;2;0;2;0;1;1;2;2;2;1;1;2;2;2;2;2;2;0;1;0;0;0;1;0;1;1;1;0;0;1;1;1;0;1;0;0;0;0;0;0;0;0;0;0;0;2;0;0;0;0;0;0;2;0;0;2;2;2;2;0;2;2;2;2;2;2;0;1;0;2;0;1;
98;OK;0;1;0;0;0;1;1;2;0;2;0;1;1;2;2;2;1;1;2;2;2;2;2;2;1;1;0;0;0;1;0;1;1;1;0;0;1;1;1;0;1;0;0;0;0;0;0;0;0;0;0;0;2;0;0;0;0;0;0;2;0;0;2;2;2;2;0;2;2;2;2;2;2;0;1;0;2;0;1;
99;OK;0;1;0;0;0;1;1;2;0;2;0;1;1;2;2;2;1;1;2;2;2;2;2;2;0;0;0;1;0;1;0;1;1;1;0;0;1;1;1;0;1;0;0;0;0;0;0;0;0;0;0;0;2;0;0;0;0;0;0;2;0;0;2;2;2;2;0;2;2;2;2;2;2;0;1;0;2;0;1;
100;OK;0;1;0;0;0;1;1;2;0;2;0;1;1;2;2;2;1;1;2;2;2;2;2;2;0;1;0;1;0;1;0;1;1;1;0;0;1;1;1;0;1;0;0;0;0;0;0;0;0;0;0;0;2;0;0;0;0;0;0;2;0;0;2;2;2;2;0;2;2;2;2;2;2;0;1;0;2;0;1;
101;OK;0;1;0;0;0;1;1;2;0;2;0;1;1;2;2;2;1;1;2;2;2;2;2;2;1;1;0;1;0;1;0;1;1;1;0;0;1;1;1;0;1;0;0;0;0;0;0;0;0;0;0;0;2;0;0;0;0;0;0;2;0;0;2;2;2;2;0;2;2;2;2;2;2;0;1;0;2;0;1;
102;OK;0;1;0;0;0;1;1;2;0;2;0;1;1;2;2;2;1;1;2;2;2;2;2;2;0;1;0;0;1;1;0;1;1;1;0;0;1;1;1;0;1;0;0;0;0;0;0;0;0;0;0;0;2;0;0;0;0;0;0;2;0;0;2;2;2;2;0;2;2;2;2;2;2;0;1;0;2;0;1;
103;OK;0;1;0;0;0;1;1;2;0;2;0;1;1;2;2;2;1;1;2;2;2;2;2;2;1;1;0;0;1;1;0;1;1;1;0;0;1;1;1;0;1;0;0;0;0;0;0;0;0;0;0;0;2;0;0;0;0;0;0;2;0;0;2;2;2;2;0;2;2;2;2;2;2;0;1;0;2;0;1;
104;OK;0;1;0;0;0;1;1;2;0;2;0;1;1;2;2;2;1;1;2;2;2;2;2;2;0;1;0;1;1;1;0;1;1;1;0;0;1;1;1;0;1;0;0;0;0;0;0;0;0;0;0;0;2;0;0;0;0;0;0;2;0;0;2;2;2;2;0;2;2;2;2;2;2;0;1;0;2;0;1;
105;OK;0;1;0;0;0;1;1;2;0;2;0;1;1;2;2;2;1;1;2;2;2;2;2;2;1;1;0;1;1;1;0;1;1;1;0;0;1;1;1;0;1;0;0;0;0;0;0;0;0;0;0;0;2;0;0;0;0;0;0;2;0;0;2;2;2;2;0;2;2;2;2;2;2;0;1;0;2;0;1;
106;OK;0;1;0;0;0;1;1;2;0;2;0;1;1;2;2;2;1;1;2;2;2;2;2;2;0;1;1;1;1;1;0;1;1;1;0;0;1;1;1;0;1;0;0;0;0;0;0;0;0;0;0;0;2;0;0;0;0;0;0;2;0;0;2;2;2;2;0;2;2;2;2;2;2;0;1;0;2;0;1;
107;OK;0;1;0;0;0;1;1;2;0;2;0;1;1;2;2;2;1;1;2;2;2;2;2;2;1;1;1;1;1;1;0;1;1;1;0;0;1;1;1;0;1;0;0;0;0;0;0;0;0;0;0;0;2;0;0;0;0;0;0;2;0;0;2;2;2;2;0;2;2;2;2;2;2;0;1;0;2;0;1;
108;OK;0;1;0;0;0;1;1;2;0;2;0;1;1;2;2;2;1;1;2;2;2;2;2;2;0;0;0;0;0;2;0;1;1;1;0;0;1;1;1;0;1;0;0;0;0;0;0;0;0;0;0;0;2;0;0;0;0;0;0;2;0;0;2;2;2;2;0;2;2;2;2;2;2;0;1;0;2;0;1;
109;OK;0;1;0;0;0;1;1;2;0;2;0;1;1;2;2;2;1;1;2;2;2;2;2;2;0;1;0;0;0;2;0;1;1;1;0;0;1;1;1;0;1;0;0;0;0;0;0;0;0;0;0;0;2;0;0;0;0;0;0;2;0;0;2;2;2;2;0;2;2;2;2;2;2;0;1;0;2;0;1;
110;OK;0;1;0;0;0;1;1;2;0;2;0;1;1;2;2;2;1;1;2;2;2;2;2;2;1;1;0;0;0;2;0;1;1;1;0;0;1;1;1;0;1;0;0;0;0;0;0;0;0;0;0;0;2;0;0;0;0;0;0;2;0;0;2;2;2;2;0;2;2;2;2;2;2;0;1;0;2;0;1;
111;OK;0;1;0;0;0;1;1;2;0;2;0;1;1;2;2;2;1;1;2;2;2;2;2;2;0;0;0;1;0;2;0;1;1;1;0;0;1;1;1;0;1;0;0;0;0;0;0;0;0;0;0;0;2;0;0;0;0;0;0;2;0;0;2;2;2;2;0;2;2;2;2;2;2;0;1;0;2;0;1;
112;OK;0;1;0;0;0;1;1;2;0;2;0;1;1;2;2;2;1;1;2;2;2;2;2;2;0;1;0;1;0;2;0;1;1;1;0;0;1;1;1;0;1;0;0;0;0;0;0;0;0;0;0;0;2;0;0;0;0;0;0;2;0;0;2;2;2;2;0;2;2;2;2;2;2;0;1;0;2;0;1;
113;OK;0;1;0;0;0;1;1;2;0;2;0;1;1;2;2;2;1;1;2;2;2;2;2;2;1;1;0;1;0;2;0;1;1;1;0;0;1;1;1;0;1;0;0;0;0;0;0;0;0;0;0;0;2;0;0;0;0;0;0;2;0;0;2;2;2;2;0;2;2;2;2;2;2;0;1;0;2;0;1;
114;OK;0;1;0;0;0;1;1;2;0;2;0;1;1;2;2;2;1;1;2;2;2;2;2;2;0;0;0;2;0;2;0;1;1;1;0;0;1;1;1;0;1;0;0;0;0;0;0;0;0;0;0;0;2;0;0;0;0;0;0;2;0;0;2;2;2;2;0;2;2;2;2;2;2;0;1;0;2;0;1;
115;OK;0;1;0;0;0;1;1;2;0;2;0;1;1;2;2;2;1;1;2;2;2;2;2;2;0;1;0;2;0;2;0;1;1;1;0;0;1;1;1;0;1;0;0;0;0;0;0;0;0;0;0;0;2;0;0;0;0;0;0;2;0;0;2;2;2;2;0;2;2;2;2;2;2;0;1;0;2;0;1;
116;OK;0;1;0;0;0;1;1;2;0;2;0;1;1;2;2;2;1;1;2;2;2;2;2;2;1;1;0;2;0;2;0;1;1;1;0;0;1;1;1;0;1;0;0;0;0;0;0;0;0;0;0;0;2;0;0;0;0;0;0;2;0;0;2;2;2;2;0;2;2;2;2;2;2;0;1;0;2;0;1;
117;OK;0;1;0;0;0;1;1;2;0;2;0;1;1;2;2;2;1;1;2;2;2;2;2;2;0;1;0;0;1;2;0;1;1;1;0;0;1;1;1;0;1;0;0;0;0;0;0;0;0;0;0;0;2;0;0;0;0;0;0;2;0;0;2;2;2;2;0;2;2;2;2;2;2;0;1;0;2;0;1;
118;OK;0;1;0;0;0;1;1;2;0;2;0;1;1;2;2;2;1;1;2;2;2;2;2;2;1;1;0;0;1;2;0;1;1;1;0;0;1;1;1;0;1;0;0;0;0;0;0;0;0;0;0;0;2;0;0;0;0;0;0;2;0;0;2;2;2;2;0;2;2;2;2;2;2;0;1;0;2;0;1;
119;OK;0;1;0;0;0;1;1;2;0;2;0;1;1;2;2;2;1;1;2;2;2;2;2;2;0;1;0;1;1;2;0;1;1;1;0;0;1;1;1;0;1;0;0;0;0;0;0;0;0;0;0;0;2;0;0;0;0;0;0;2;0;0;2;2;2;2;0;2;2;2;2;2;2;0;1;0;2;0;1;
120;OK;0;1;0;0;0;1;1;2;0;2;0;1;1;2;2;2;1;1;2;2;2;2;2;2;1;1;0;1;1;2;0;1;1;1;0;0;1;1;1;0;1;0;0;0;0;0;0;0;0;0;0;0;2;0;0;0;0;0;0;2;0;0;2;2;2;2;0;2;2;2;2;2;2;0;1;0;2;0;1;
121;OK;0;1;0;0;0;1;1;2;0;2;0;1;1;2;2;2;1;1;2;2;2;2;2;2;0;1;1;1;1;2;0;1;1;1;0;0;1;1;1;0;1;0;0;0;0;0;0;0;0;0;0;0;2;0;0;0;0;0;0;2;0;0;2;2;2;2;0;2;2;2;2;2;2;0;1;0;2;0;1;
122;OK;0;1;0;0;0;1;1;2;0;2;0;1;1;2;2;2;1;1;2;2;2;2;2;2;1;1;1;1;1;2;0;1;1;1;0;0;1;1;1;0;1;0;0;0;0;0;0;0;0;0;0;0;2;0;0;0;0;0;0;2;0;0;2;2;2;2;0;2;2;2;2;2;2;0;1;0;2;0;1;
123;OK;0;1;0;0;0;1;1;2;0;2;0;1;1;2;2;2;1;1;2;2;2;2;2;2;0;1;0;2;1;2;0;1;1;1;0;0;1;1;1;0;1;0;0;0;0;0;0;0;0;0;0;0;2;0;0;0;0;0;0;2;0;0;2;2;2;2;0;2;2;2;2;2;2;0;1;0;2;0;1;
124;OK;0;1;0;0;0;1;1;2;0;2;0;1;1;2;2;2;1;1;2;2;2;2;2;2;1;1;0;2;1;2;0;1;1;1;0;0;1;1;1;0;1;0;0;0;0;0;0;0;0;0;0;0;2;0;0;0;0;0;0;2;0;0;2;2;2;2;0;2;2;2;2;2;2;0;1;0;2;0;1;
125;OK;0;1;0;0;0;1;1;2;0;2;0;1;1;2;2;2;1;1;2;2;2;2;2;2;0;1;1;2;1;2;0;1;1;1;0;0;1;1;1;0;1;0;0;0;0;0;0;0;0;0;0;0;2;0;0;0;0;0;0;2;0;0;2;2;2;2;0;2;2;2;2;2;2;0;1;0;2;0;1;
126;OK;0;1;0;0;0;1;1;2;0;2;0;1;1;2;2;2;1;1;2;2;2;2;2;2;1;1;1;2;1;2;0;1;1;1;0;0;1;1;1;0;1;0;0;0;0;0;0;0;0;0;0;0;2;0;0;0;0;0;0;2;0;0;2;2;2;2;0;2;2;2;2;2;2;0;1;0;2;0;1;
127;OK;0;1;0;0;0;1;1;2;0;2;0;1;1;2;2;2;1;1;2;2;2;2;2;2;0;1;0;0;2;2;0;1;1;1;0;0;1;1;1;0;1;0;0;0;0;0;0;0;0;0;0;0;2;0;0;0;0;0;0;2;0;0;2;2;2;2;0;2;2;2;2;2;2;0;1;0;2;0;1;
128;OK;0;1;0;0;0;1;1;2;0;2;0;1;1;2;2;2;1;1;2;2;2;2;2;2;1;1;0;0;2;2;0;1;1;1;0;0;1;1;1;0;1;0;0;0;0;0;0;0;0;0;0;0;2;0;0;0;0;0;0;2;0;0;2;2;2;2;0;2;2;2;2;2;2;0;1;0;2;0;1;
129;OK;0;1;0;0;0;1;1;2;0;2;0;1;1;2;2;2;1;1;2;2;2;2;2;2;0;1;0;1;2;2;0;1;1;1;0;0;1;1;1;0;1;0;0;0;0;0;0;0;0;0;0;0;2;0;0;0;0;0;0;2;0;0;2;2;2;2;0;2;2;2;2;2;2;0;1;0;2;0;1;
130;OK;0;1;0;0;0;1;1;2;0;2;0;1;1;2;2;2;1;1;2;2;2;2;2;2;1;1;0;1;2;2;0;1;1;1;0;0;1;1;1;0;1;0;0;0;0;0;0;0;0;0;0;0;2;0;0;0;0;0;0;2;0;0;2;2;2;2;0;2;2;2;2;2;2;0;1;0;2;0;1;
131;OK;0;1;0;0;0;1;1;2;0;2;0;1;1;2;2;2;1;1;2;2;2;2;2;2;0;1;1;1;2;2;0;1;1;1;0;0;1;1;1;0;1;0;0;0;0;0;0;0;0;0;0;0;2;0;0;0;0;0;0;2;0;0;2;2;2;2;0;2;2;2;2;2;2;0;1;0;2;0;1;
132;OK;0;1;0;0;0;1;1;2;0;2;0;1;1;2;2;2;1;1;2;2;2;2;2;2;1;1;1;1;2;2;0;1;1;1;0;0;1;1;1;0;1;0;0;0;0;0;0;0;0;0;0;0;2;0;0;0;0;0;0;2;0;0;2;2;2;2;0;2;2;2;2;2;2;0;1;0;2;0;1;
133;OK;0;1;0;0;0;1;1;2;0;2;0;1;1;2;2;2;1;1;2;2;2;2;2;2;0;1;0;2;2;2;0;1;1;1;0;0;1;1;1;0;1;0;0;0;0;0;0;0;0;0;0;0;2;0;0;0;0;0;0;2;0;0;2;2;2;2;0;2;2;2;2;2;2;0;1;0;2;0;1;
134;OK;0;1;0;0;0;1;1;2;0;2;0;1;1;2;2;2;1;1;2;2;2;2;2;2;1;1;0;2;2;2;0;1;1;1;0;0;1;1;1;0;1;0;0;0;0;0;0;0;0;0;0;0;2;0;0;0;0;0;0;2;0;0;2;2;2;2;0;2;2;2;2;2;2;0;1;0;2;0;1;
135;OK;0;1;0;0;0;1;1;2;0;2;0;1;1;2;2;2;1;1;2;2;2;2;2;2;0;1;1;2;2;2;0;1;1;1;0;0;1;1;1;0;1;0;0;0;0;0;0;0;0;0;0;0;2;0;0;0;0;0;0;2;0;0;2;2;2;2;0;2;2;2;2;2;2;0;1;0;2;0;1;
136;OK;0;1;0;0;0;1;1;2;0;2;0;1;1;2;2;2;1;1;2;2;2;2;2;2;1;1;1;2;2;2;0;1;1;1;0;0;1;1;1;0;1;0;0;0;0;0;0;0;0;0;0;0;2;0;0;0;0;0;0;2;0;0;2;2;2;2;0;2;2;2;2;2;2;0;1;0;2;0;1;
137;OK;0;1;0;0;0;1;1;2;0;2;0;1;1;2;2;2;1;1;2;2;2;2;2;2;0;1;2;2;2;2;0;1;1;1;0;0;1;1;1;0;1;0;0;0;0;0;0;0;0;0;0;0;2;0;0;0;0;0;0;2;0;0;2;2;2;2;0;2;2;2;2;2;2;0;1;0;2;0;1;
138;OK;0;1;0;0;0;1;1;2;0;2;0;1;1;2;2;2;1;1;2;2;2;2;2;2;0;0;0;0;0;0;0;1;1;1;0;0;1;0;2;0;1;0;0;0;0;0;0;0;0;0;0;0;2;0;0;0;0;0;0;2;0;0;2;2;2;2;0;2;2;2;2;2;2;0;1;0;2;0;1;
139;OK;0;1;0;0;0;1;1;2;0;2;0;1;1;2;2;2;1;1;2;2;2;2;2;2;0;1;0;0;0;0;0;1;1;1;0;0;1;0;2;0;1;0;0;0;0;0;0;0;0;0;0;0;2;0;0;0;0;0;0;2;0;0;2;2;2;2;0;2;2;2;2;2;2;0;1;0;2;0;1;
140;OK;0;1;0;0;0;1;1;2;0;2;0;1;1;2;2;2;1;1;2;2;2;2;2;2;1;1;0;0;0;0;0;1;1;1;0;0;1;0;2;0;1;0;0;0;0;0;0;0;0;0;0;0;2;0;0;0;0;0;0;2;0;0;2;2;2;2;0;2;2;2;2;2;2;0;1;0;2;0;1;
141;OK;0;1;0;0;0;1;1;2;0;2;0;1;1;2;2;2;1;1;2;2;2;2;2;2;0;0;0;0;0;1;0;1;1;1;0;0;1;0;2;0;1;0;0;0;0;0;0;0;0;0;0;0;2;0;0;0;0;0;0;2;0;0;2;2;2;2;0;2;2;2;2;2;2;0;1;0;2;0;1;
142;OK;0;1;0;0;0;1;1;2;0;2;0;1;1;2;2;2;1;1;2;2;2;2;2;2;0;1;0;0;0;1;0;1;1;1;0;0;1;0;2;0;1;0;0;0;0;0;0;0;0;0;0;0;2;0;0;0;0;0;0;2;0;0;2;2;2;2;0;2;2;2;2;2;2;0;1;0;2;0;1;
143;OK;0;1;0;0;0;1;1;2;0;2;0;1;1;2;2;2;1;1;2;2;2;2;2;2;1;1;0;0;0;1;0;1;1;1;0;0;1;0;2;0;1;0;0;0;0;0;0;0;0;0;0;0;2;0;0;0;0;0;0;2;0;0;2;2;2;2;0;2;2;2;2;2;2;0;1;0;2;0;1;
144;OK;0;1;0;0;0;1;1;2;0;2;0;1;1;2;2;2;1;1;2;2;2;2;2;2;0;0;0;1;0;1;0;1;1;1;0;0;1;0;2;0;1;0;0;0;0;0;0;0;0;0;0;0;2;0;0;0;0;0;0;2;0;0;2;2;2;2;0;2;2;2;2;2;2;0;1;0;2;0;1;
145;OK;0;1;0;0;0;1;1;2;0;2;0;1;1;2;2;2;1;1;2;2;2;2;2;2;0;1;0;1;0;1;0;1;1;1;0;0;1;0;2;0;1;0;0;0;0;0;0;0;0;0;0;0;2;0;0;0;0;0;0;2;0;0;2;2;2;2;0;2;2;2;2;2;2;0;1;0;2;0;1;
146;OK;0;1;0;0;0;1;1;2;0;2;0;1;1;2;2;2;1;1;2;2;2;2;2;2;1;1;0;1;0;1;0;1;1;1;0;0;1;0;2;0;1;0;0;0;0;0;0;0;0;0;0;0;2;0;0;0;0;0;0;2;0;0;2;2;2;2;0;2;2;2;2;2;2;0;1;0;2;0;1;
147;OK;0;1;0;0;0;1;1;2;0;2;0;1;1;2;2;2;1;1;2;2;2;2;2;2;0;0;0;0;1;1;0;1;1;1;0;0;1;0;2;0;1;0;0;0;0;0;0;0;0;0;0;0;2;0;0;0;0;0;0;2;0;0;2;2;2;2;0;2;2;2;2;2;2;0;1;0;2;0;1;
148;OK;0;1;0;0;0;1;1;2;0;2;0;1;1;2;2;2;1;1;2;2;2;2;2;2;0;1;0;0;1;1;0;1;1;1;0;0;1;0;2;0;1;0;0;0;0;0;0;0;0;0;0;0;2;0;0;0;0;0;0;2;0;0;2;2;2;2;0;2;2;2;2;2;2;0;1;0;2;0;1;
149;OK;0;1;0;0;0;1;1;2;0;2;0;1;1;2;2;2;1;1;2;2;2;2;2;2;1;1;0;0;1;1;0;1;1;1;0;0;1;0;2;0;1;0;0;0;0;0;0;0;0;0;0;0;2;0;0;0;0;0;0;2;0;0;2;2;2;2;0;2;2;2;2;2;2;0;1;0;2;0;1;
150;OK;0;1;0;0;0;1;1;2;0;2;0;1;1;2;2;2;1;1;2;2;2;2;2;2;0;0;0;1;1;1;0;1;1;1;0;0;1;0;2;0;1;0;0;0;0;0;0;0;0;0;0;0;2;0;0;0;0;0;0;2;0;0;2;2;2;2;0;2;2;2;2;2;2;0;1;0;2;0;1;
151;OK;0;1;0;0;0;1;1;2;0;2;0;1;1;2;2;2;1;1;2;2;2;2;2;2;0;1;0;1;1;1;0;1;1;1;0;0;1;0;2;0;1;0;0;0;0;0;0;0;0;0;0;0;2;0;0;0;0;0;0;2;0;0;2;2;2;2;0;2;2;2;2;2;2;0;1;0;2;0;1;
152;OK;0;1;0;0;0;1;1;2;0;2;0;1;1;2;2;2;1;1;2;2;2;2;2;2;1;1;0;1;1;1;0;1;1;1;0;0;1;0;2;0;1;0;0;0;0;0;0;0;0;0;0;0;2;0;0;0;0;0;0;2;0;0;2;2;2;2;0;2;2;2;2;2;2;0;1;0;2;0;1;
153;OK;0;1;0;0;0;1;1;2;0;2;0;1;1;2;2;2;1;1;2;2;2;2;2;2;0;0;1;1;1;1;0;1;1;1;0;0;1;0;2;0;1;0;0;0;0;0;0;0;0;0;0;0;2;0;0;0;0;0;0;2;0;0;2;2;2;2;0;2;2;2;2;2;2;0;1;0;2;0;1;
154;OK;0;1;0;0;0;1;1;2;0;2;0;1;1;2;2;2;1;1;2;2;2;2;2;2;0;1;1;1;1;1;0;1;1;1;0;0;1;0;2;0;1;0;0;0;0;0;0;0;0;0;0;0;2;0;0;0;0;0;0;2;0;0;2;2;2;2;0;2;2;2;2;2;2;0;1;0;2;0;1;
155;OK;0;1;0;0;0;1;1;2;0;2;0;1;1;2;2;2;1;1;2;2;2;2;2;2;1;1;1;1;1;1;0;1;1;1;0;0;1;0;2;0;1;0;0;0;0;0;0;0;0;0;0;0;2;0;0;0;0;0;0;2;0;0;2;2;2;2;0;2;2;2;2;2;2;0;1;0;2;0;1;
156;OK;0;1;0;0;0;1;1;2;0;2;0;1;1;2;2;2;1;1;2;2;2;2;2;2;0;0;0;0;0;2;0;1;1;1;0;0;1;0;2;0;1;0;0;0;0;0;0;0;0;0;0;0;2;0;0;0;0;0;0;2;0;0;2;2;2;2;0;2;2;2;2;2;2;0;1;0;2;0;1;
157;OK;0;1;0;0;0;1;1;2;0;2;0;1;1;2;2;2;1;1;2;2;2;2;2;2;0;1;0;0;0;2;0;1;1;1;0;0;1;0;2;0;1;0;0;0;0;0;0;0;0;0;0;0;2;0;0;0;0;0;0;2;0;0;2;2;2;2;0;2;2;2;2;2;2;0;1;0;2;0;1;
158;OK;0;1;0;0;0;1;1;2;0;2;0;1;1;2;2;2;1;1;2;2;2;2;2;2;1;1;0;0;0;2;0;1;1;1;0;0;1;0;2;0;1;0;0;0;0;0;0;0;0;0;0;0;2;0;0;0;0;0;0;2;0;0;2;2;2;2;0;2;2;2;2;2;2;0;1;0;2;0;1;
159;OK;0;1;0;0;0;1;1;2;0;2;0;1;1;2;2;2;1;1;2;2;2;2;2;2;0;0;0;1;0;2;0;1;1;1;0;0;1;0;2;0;1;0;0;0;0;0;0;0;0;0;0;0;2;0;0;0;0;0;0;2;0;0;2;2;2;2;0;2;2;2;2;2;2;0;1;0;2;0;1;
160;OK;0;1;0;0;0;1;1;2;0;2;0;1;1;2;2;2;1;1;2;2;2;2;2;2;0;1;0;1;0;2;0;1;1;1;0;0;1;0;2;0;1;0;0;0;0;0;0;0;0;0;0;0;2;0;0;0;0;0;0;2;0;0;2;2;2;2;0;2;2;2;2;2;2;0;1;0;2;0;1;
161;OK;0;1;0;0;0;1;1;2;0;2;0;1;1;2;2;2;1;1;2;2;2;2;2;2;1;1;0;1;0;2;0;1;1;1;0;0;1;0;2;0;1;0;0;0;0;0;0;0;0;0;0;0;2;0;0;0;0;0;0;2;0;0;2;2;2;2;0;2;2;2;2;2;2;0;1;0;2;0;1;
162;OK;0;1;0;0;0;1;1;2;0;2;0;1;1;2;2;2;1;1;2;2;2;2;2;2;0;0;0;2;0;2;0;1;1;1;0;0;1;0;2;0;1;0;0;0;0;0;0;0;0;0;0;0;2;0;0;0;0;0;0;2;0;0;2;2;2;2;0;2;2;2;2;2;2;0;1;0;2;0;1;
163;OK;0;1;0;0;0;1;1;2;0;2;0;1;1;2;2;2;1;1;2;2;2;2;2;2;0;1;0;2;0;2;0;1;1;1;0;0;1;0;2;0;1;0;0;0;0;0;0;0;0;0;0;0;2;0;0;0;0;0;0;2;0;0;2;2;2;2;0;2;2;2;2;2;2;0;1;0;2;0;1;
164;OK;0;1;0;0;0;1;1;2;0;2;0;1;1;2;2;2;1;1;2;2;2;2;2;2;1;1;0;2;0;2;0;1;1;1;0;0;1;0;2;0;1;0;0;0;0;0;0;0;0;0;0;0;2;0;0;0;0;0;0;2;0;0;2;2;2;2;0;2;2;2;2;2;2;0;1;0;2;0;1;
165;OK;0;1;0;0;0;1;1;2;0;2;0;1;1;2;2;2;1;1;2;2;2;2;2;2;0;0;0;0;1;2;0;1;1;1;0;0;1;0;2;0;1;0;0;0;0;0;0;0;0;0;0;0;2;0;0;0;0;0;0;2;0;0;2;2;2;2;0;2;2;2;2;2;2;0;1;0;2;0;1;
166;OK;0;1;0;0;0;1;1;2;0;2;0;1;1;2;2;2;1;1;2;2;2;2;2;2;0;1;0;0;1;2;0;1;1;1;0;0;1;0;2;0;1;0;0;0;0;0;0;0;0;0;0;0;2;0;0;0;0;0;0;2;0;0;2;2;2;2;0;2;2;2;2;2;2;0;1;0;2;0;1;
167;OK;0;1;0;0;0;1;1;2;0;2;0;1;1;2;2;2;1;1;2;2;2;2;2;2;1;1;0;0;1;2;0;1;1;1;0;0;1;0;2;0;1;0;0;0;0;0;0;0;0;0;0;0;2;0;0;0;0;0;0;2;0;0;2;2;2;2;0;2;2;2;2;2;2;0;1;0;2;0;1;
168;OK;0;1;0;0;0;1;1;2;0;2;0;1;1;2;2;2;1;1;2;2;2;2;2;2;0;0;0;1;1;2;0;1;1;1;0;0;1;0;2;0;1;0;0;0;0;0;0;0;0;0;0;0;2;0;0;0;0;0;0;2;0;0;2;2;2;2;0;2;2;2;2;2;2;0;1;0;2;0;1;
169;OK;0;1;0;0;0;1;1;2;0;2;0;1;1;2;2;2;1;1;2;2;2;2;2;2;0;1;0;1;1;2;0;1;1;1;0;0;1;0;2;0;1;0;0;0;0;0;0;0;0;0;0;0;2;0;0;0;0;0;0;2;0;0;2;2;2;2;0;2;2;2;2;2;2;0;1;0;2;0;1;
170;OK;0;1;0;0;0;1;1;2;0;2;0;1;1;2;2;2;1;1;2;2;2;2;2;2;1;1;0;1;1;2;0;1;1;1;0;0;1;0;2;0;1;0;0;0;0;0;0;0;0;0;0;0;2;0;0;0;0;0;0;2;0;0;2;2;2;2;0;2;2;2;2;2;2;0;1;0;2;0;1;
171;OK;0;1;0;0;0;1;1;2;0;2;0;1;1;2;2;2;1;1;2;2;2;2;2;2;0;0;1;1;1;2;0;1;1;1;0;0;1;0;2;0;1;0;0;0;0;0;0;0;0;0;0;0;2;0;0;0;0;0;0;2;0;0;2;2;2;2;0;2;2;2;2;2;2;0;1;0;2;0;1;
172;OK;0;1;0;0;0;1;1;2;0;2;0;1;1;2;2;2;1;1;2;2;2;2;2;2;0;1;1;1;1;2;0;1;1;1;0;0;1;0;2;0;1;0;0;0;0;0;0;0;0;0;0;0;2;0;0;0;0;0;0;2;0;0;2;2;2;2;0;2;2;2;2;2;2;0;1;0;2;0;1;
173;OK;0;1;0;0;0;1;1;2;0;2;0;1;1;2;2;2;1;1;2;2;2;2;2;2;1;1;1;1;1;2;0;1;1;1;0;0;1;0;2;0;1;0;0;0;0;0;0;0;0;0;0;0;2;0;0;0;0;0;0;2;0;0;2;2;2;2;0;2;2;2;2;2;2;0;1;0;2;0;1;
174;OK;0;1;0;0;0;1;1;2;0;2;0;1;1;2;2;2;1;1;2;2;2;2;2;2;0;0;0;2;1;2;0;1;1;1;0;0;1;0;2;0;1;0;0;0;0;0;0;0;0;0;0;0;2;0;0;0;0;0;0;2;0;0;2;2;2;2;0;2;2;2;2;2;2;0;1;0;2;0;1;
175;OK;0;1;0;0;0;1;1;2;0;2;0;1;1;2;2;2;1;1;2;2;2;2;2;2;0;1;0;2;1;2;0;1;1;1;0;0;1;0;2;0;1;0;0;0;0;0;0;0;0;0;0;0;2;0;0;0;0;0;0;2;0;0;2;2;2;2;0;2;2;2;2;2;2;0;1;0;2;0;1;
176;OK;0;1;0;0;0;1;1;2;0;2;0;1;1;2;2;2;1;1;2;2;2;2;2;2;1;1;0;2;1;2;0;1;1;1;0;0;1;0;2;0;1;0;0;0;0;0;0;0;0;0;0;0;2;0;0;0;0;0;0;2;0;0;2;2;2;2;0;2;2;2;2;2;2;0;1;0;2;0;1;
177;OK;0;1;0;0;0;1;1;2;0;2;0;1;1;2;2;2;1;1;2;2;2;2;2;2;0;0;1;2;1;2;0;1;1;1;0;0;1;0;2;0;1;0;0;0;0;0;0;0;0;0;0;0;2;0;0;0;0;0;0;2;0;0;2;2;2;2;0;2;2;2;2;2;2;0;1;0;2;0;1;
178;OK;0;1;0;0;0;1;1;2;0;2;0;1;1;2;2;2;1;1;2;2;2;2;2;2;0;1;1;2;1;2;0;1;1;1;0;0;1;0;2;0;1;0;0;0;0;0;0;0;0;0;0;0;2;0;0;0;0;0;0;2;0;0;2;2;2;2;0;2;2;2;2;2;2;0;1;0;2;0;1;
179;OK;0;1;0;0;0;1;1;2;0;2;0;1;1;2;2;2;1;1;2;2;2;2;2;2;1;1;1;2;1;2;0;1;1;1;0;0;1;0;2;0;1;0;0;0;0;0;0;0;0;0;0;0;2;0;0;0;0;0;0;2;0;0;2;2;2;2;0;2;2;2;2;2;2;0;1;0;2;0;1;
180;OK;0;1;0;0;0;1;1;2;0;2;0;1;1;2;2;2;1;1;2;2;2;2;2;2;0;1;0;0;2;2;0;1;1;1;0;0;1;0;2;0;1;0;0;0;0;0;0;0;0;0;0;0;2;0;0;0;0;0;0;2;0;0;2;2;2;2;0;2;2;2;2;2;2;0;1;0;2;0;1;
181;OK;0;1;0;0;0;1;1;2;0;2;0;1;1;2;2;2;1;1;2;2;2;2;2;2;1;1;0;0;2;2;0;1;1;1;0;0;1;0;2;0;1;0;0;0;0;0;0;0;0;0;0;0;2;0;0;0;0;0;0;2;0;0;2;2;2;2;0;2;2;2;2;2;2;0;1;0;2;0;1;
182;OK;0;1;0;0;0;1;1;2;0;2;0;1;1;2;2;2;1;1;2;2;2;2;2;2;0;1;0;1;2;2;0;1;1;1;0;0;1;0;2;0;1;0;0;0;0;0;0;0;0;0;0;0;2;0;0;0;0;0;0;2;0;0;2;2;2;2;0;2;2;2;2;2;2;0;1;0;2;0;1;
183;OK;0;1;0;0;0;1;1;2;0;2;0;1;1;2;2;2;1;1;2;2;2;2;2;2;1;1;0;1;2;2;0;1;1;1;0;0;1;0;2;0;1;0;0;0;0;0;0;0;0;0;0;0;2;0;0;0;0;0;0;2;0;0;2;2;2;2;0;2;2;2;2;2;2;0;1;0;2;0;1;
184;OK;0;1;0;0;0;1;1;2;0;2;0;1;1;2;2;2;1;1;2;2;2;2;2;2;0;1;1;1;2;2;0;1;1;1;0;0;1;0;2;0;1;0;0;0;0;0;0;0;0;0;0;0;2;0;0;0;0;0;0;2;0;0;2;2;2;2;0;2;2;2;2;2;2;0;1;0;2;0;1;
185;OK;0;1;0;0;0;1;1;2;0;2;0;1;1;2;2;2;1;1;2;2;2;2;2;2;1;1;1;1;2;2;0;1;1;1;0;0;1;0;2;0;1;0;0;0;0;0;0;0;0;0;0;0;2;0;0;0;0;0;0;2;0;0;2;2;2;2;0;2;2;2;2;2;2;0;1;0;2;0;1;
186;OK;0;1;0;0;0;1;1;2;0;2;0;1;1;2;2;2;1;1;2;2;2;2;2;2;0;1;0;2;2;2;0;1;1;1;0;0;1;0;2;0;1;0;0;0;0;0;0;0;0;0;0;0;2;0;0;0;0;0;0;2;0;0;2;2;2;2;0;2;2;2;2;2;2;0;1;0;2;0;1;
187;OK;0;1;0;0;0;1;1;2;0;2;0;1;1;2;2;2;1;1;2;2;2;2;2;2;1;1;0;2;2;2;0;1;1;1;0;0;1;0;2;0;1;0;0;0;0;0;0;0;0;0;0;0;2;0;0;0;0;0;0;2;0;0;2;2;2;2;0;2;2;2;2;2;2;0;1;0;2;0;1;
188;OK;0;1;0;0;0;1;1;2;0;2;0;1;1;2;2;2;1;1;2;2;2;2;2;2;0;1;1;2;2;2;0;1;1;1;0;0;1;0;2;0;1;0;0;0;0;0;0;0;0;0;0;0;2;0;0;0;0;0;0;2;0;0;2;2;2;2;0;2;2;2;2;2;2;0;1;0;2;0;1;
189;OK;0;1;0;0;0;1;1;2;0;2;0;1;1;2;2;2;1;1;2;2;2;2;2;2;1;1;1;2;2;2;0;1;1;1;0;0;1;0;2;0;1;0;0;0;0;0;0;0;0;0;0;0;2;0;0;0;0;0;0;2;0;0;2;2;2;2;0;2;2;2;2;2;2;0;1;0;2;0;1;
190;OK;0;1;0;0;0;1;1;2;0;2;0;1;1;2;2;2;1;1;2;2;2;2;2;2;0;1;2;2;2;2;0;1;1;1;0;0;1;0;2;0;1;0;0;0;0;0;0;0;0;0;0;0;2;0;0;0;0;0;0;2;0;0;2;2;2;2;0;2;2;2;2;2;2;0;1;0;2;0;1;
191;OK;0;1;0;0;0;1;1;2;0;2;0;1;1;2;2;2;1;1;2;2;2;2;2;2;1;1;2;2;2;2;0;1;1;1;0;0;1;0;2;0;1;0;0;0;0;0;0;0;0;0;0;0;2;0;0;0;0;0;0;2;0;0;2;2;2;2;0;2;2;2;2;2;2;0;1;0;2;0;1;
192;OK;0;1;0;0;0;1;1;2;0;2;0;1;1;2;2;2;1;1;2;2;2;2;2;2;0;0;0;0;0;0;0;1;1;1;0;0;1;1;2;0;1;0;0;0;0;0;0;0;0;0;0;0;2;0;0;0;0;0;0;2;0;0;2;2;2;2;0;2;2;2;2;2;2;0;1;0;2;0;1;
193;OK;0;1;0;0;0;1;1;2;0;2;0;1;1;2;2;2;1;1;2;2;2;2;2;2;0;1;0;0;0;0;0;1;1;1;0;0;1;1;2;0;1;0;0;0;0;0;0;0;0;0;0;0;2;0;0;0;0;0;0;2;0;0;2;2;2;2;0;2;2;2;2;2;2;0;1;0;2;0;1;
194;OK;0;1;0;0;0;1;1;2;0;2;0;1;1;2;2;2;1;1;2;2;2;2;2;2;1;1;0;0;0;0;0;1;1;1;0;0;1;1;2;0;1;0;0;0;0;0;0;0;0;0;0;0;2;0;0;0;0;0;0;2;0;0;2;2;2;2;0;2;2;2;2;2;2;0;1;0;2;0;1;
195;OK;0;1;0;0;0;1;1;2;0;2;0;1;1;2;2;2;1;1;2;2;2;2;2;2;0;0;0;0;0;1;0;1;1;1;0;0;1;1;2;0;1;0;0;0;0;0;0;0;0;0;0;0;2;0;0;0;0;0;0;2;0;0;2;2;2;2;0;2;2;2;2;2;2;0;1;0;2;0;1;
196;OK;0;1;0;0;0;1;1;2;0;2;0;1;1;2;2;2;1;1;2;2;2;2;2;2;0;1;0;0;0;1;0;1;1;1;0;0;1;1;2;0;1;0;0;0;0;0;0;0;0;0;0;0;2;0;0;0;0;0;0;2;0;0;2;2;2;2;0;2;2;2;2;2;2;0;1;0;2;0;1;
197;OK;0;1;0;0;0;1;1;2;0;2;0;1;1;2;2;2;1;1;2;2;2;2;2;2;1;1;0;0;0;1;0;1;1;1;0;0;1;1;2;0;1;0;0;0;0;0;0;0;0;0;0;0;2;0;0;0;0;0;0;2;0;0;2;2;2;2;0;2;2;2;2;2;2;0;1;0;2;0;1;
198;OK;0;1;0;0;0;1;1;2;0;2;0;1;1;2;2;2;1;1;2;2;2;2;2;2;0;0;0;1;0;1;0;1;1;1;0;0;1;1;2;0;1;0;0;0;0;0;0;0;0;0;0;0;2;0;0;0;0;0;0;2;0;0;2;2;2;2;0;2;2;2;2;2;2;0;1;0;2;0;1;
199;OK;0;1;0;0;0;1;1;2;0;2;0;1;1;2;2;2;1;1;2;2;2;2;2;2;0;1;0;1;0;1;0;1;1;1;0;0;1;1;2;0;1;0;0;0;0;0;0;0;0;0;0;0;2;0;0;0;0;0;0;2;0;0;2;2;2;2;0;2;2;2;2;2;2;0;1;0;2;0;1;
200;OK;0;1;0;0;0;1;1;2;0;2;0;1;1;2;2;2;1;1;2;2;2;2;2;2;1;1;0;1;0;1;0;1;1;1;0;0;1;1;2;0;1;0;0;0;0;0;0;0;0;0;0;0;2;0;0;0;0;0;0;2;0;0;2;2;2;2;0;2;2;2;2;2;2;0;1;0;2;0;1;
201;OK;0;1;0;0;0;1;1;2;0;2;0;1;1;2;2;2;1;1;2;2;2;2;2;2;0;0;0;0;1;1;0;1;1;1;0;0;1;1;2;0;1;0;0;0;0;0;0;0;0;0;0;0;2;0;0;0;0;0;0;2;0;0;2;2;2;2;0;2;2;2;2;2;2;0;1;0;2;0;1;
202;OK;0;1;0;0;0;1;1;2;0;2;0;1;1;2;2;2;1;1;2;2;2;2;2;2;0;1;0;0;1;1;0;1;1;1;0;0;1;1;2;0;1;0;0;0;0;0;0;0;0;0;0;0;2;0;0;0;0;0;0;2;0;0;2;2;2;2;0;2;2;2;2;2;2;0;1;0;2;0;1;
203;OK;0;1;0;0;0;1;1;2;0;2;0;1;1;2;2;2;1;1;2;2;2;2;2;2;1;1;0;0;1;1;0;1;1;1;0;0;1;1;2;0;1;0;0;0;0;0;0;0;0;0;0;0;2;0;0;0;0;0;0;2;0;0;2;2;2;2;0;2;2;2;2;2;2;0;1;0;2;0;1;
204;OK;0;1;0;0;0;1;1;2;0;2;0;1;1;2;2;2;1;1;2;2;2;2;2;2;0;0;0;1;1;1;0;1;1;1;0;0;1;1;2;0;1;0;0;0;0;0;0;0;0;0;0;0;2;0;0;0;0;0;0;2;0;0;2;2;2;2;0;2;2;2;2;2;2;0;1;0;2;0;1;
205;OK;0;1;0;0;0;1;1;2;0;2;0;1;1;2;2;2;1;1;2;2;2;2;2;2;0;1;0;1;1;1;0;1;1;1;0;0;1;1;2;0;1;0;0;0;0;0;0;0;0;0;0;0;2;0;0;0;0;0;0;2;0;0;2;2;2;2;0;2;2;2;2;2;2;0;1;0;2;0;1;
206;OK;0;1;0;0;0;1;1;2;0;2;0;1;1;2;2;2;1;1;2;2;2;2;2;2;1;1;0;1;1;1;0;1;1;1;0;0;1;1;2;0;1;0;0;0;0;0;0;0;0;0;0;0;2;0;0;0;0;0;0;2;0;0;2;2;2;2;0;2;2;2;2;2;2;0;1;0;2;0;1;
207;OK;0;1;0;0;0;1;1;2;0;2;0;1;1;2;2;2;1;1;2;2;2;2;2;2;0;0;1;1;1;1;0;1;1;1;0;0;1;1;2;0;1;0;0;0;0;0;0;0;0;0;0;0;2;0;0;0;0;0;0;2;0;0;2;2;2;2;0;2;2;2;2;2;2;0;1;0;2;0;1;
208;OK;0;1;0;0;0;1;1;2;0;2;0;1;1;2;2;2;1;1;2;2;2;2;2;2;0;1;1;1;1;1;0;1;1;1;0;0;1;1;2;0;1;0;0;0;0;0;0;0;0;0;0;0;2;0;0;0;0;0;0;2;0;0;2;2;2;2;0;2;2;2;2;2;2;0;1;0;2;0;1;
209;OK;0;1;0;0;0;1;1;2;0;2;0;1;1;2;2;2;1;1;2;2;2;2;2;2;1;1;1;1;1;1;0;1;1;1;0;0;1;1;2;0;1;0;0;0;0;0;0;0;0;0;0;0;2;0;0;0;0;0;0;2;0;0;2;2;2;2;0;2;2;2;2;2;2;0;1;0;2;0;1;
210;OK;0;1;0;0;0;1;1;2;0;2;0;1;1;2;2;2;1;1;2;2;2;2;2;2;0;0;0;0;0;2;0;1;1;1;0;0;1;1;2;0;1;0;0;0;0;0;0;0;0;0;0;0;2;0;0;0;0;0;0;2;0;0;2;2;2;2;0;2;2;2;2;2;2;0;1;0;2;0;1;
211;OK;0;1;0;0;0;1;1;2;0;2;0;1;1;2;2;2;1;1;2;2;2;2;2;2;0;1;0;0;0;2;0;1;1;1;0;0;1;1;2;0;1;0;0;0;0;0;0;0;0;0;0;0;2;0;0;0;0;0;0;2;0;0;2;2;2;2;0;2;2;2;2;2;2;0;1;0;2;0;1;
212;OK;0;1;0;0;0;1;1;2;0;2;0;1;1;2;2;2;1;1;2;2;2;2;2;2;1;1;0;0;0;2;0;1;1;1;0;0;1;1;2;0;1;0;0;0;0;0;0;0;0;0;0;0;2;0;0;0;0;0;0;2;0;0;2;2;2;2;0;2;2;2;2;2;2;0;1;0;2;0;1;
213;OK;0;1;0;0;0;1;1;2;0;2;0;1;1;2;2;2;1;1;2;2;2;2;2;2;0;0;0;1;0;2;0;1;1;1;0;0;1;1;2;0;1;0;0;0;0;0;0;0;0;0;0;0;2;0;0;0;0;0;0;2;0;0;2;2;2;2;0;2;2;2;2;2;2;0;1;0;2;0;1;
214;OK;0;1;0;0;0;1;1;2;0;2;0;1;1;2;2;2;1;1;2;2;2;2;2;2;0;1;0;1;0;2;0;1;1;1;0;0;1;1;2;0;1;0;0;0;0;0;0;0;0;0;0;0;2;0;0;0;0;0;0;2;0;0;2;2;2;2;0;2;2;2;2;2;2;0;1;0;2;0;1;
215;OK;0;1;0;0;0;1;1;2;0;2;0;1;1;2;2;2;1;1;2;2;2;2;2;2;1;1;0;1;0;2;0;1;1;1;0;0;1;1;2;0;1;0;0;0;0;0;0;0;0;0;0;0;2;0;0;0;0;0;0;2;0;0;2;2;2;2;0;2;2;2;2;2;2;0;1;0;2;0;1;
216;OK;0;1;0;0;0;1;1;2;0;2;0;1;1;2;2;2;1;1;2;2;2;2;2;2;0;0;0;2;0;2;0;1;1;1;0;0;1;1;2;0;1;0;0;0;0;0;0;0;0;0;0;0;2;0;0;0;0;0;0;2;0;0;2;2;2;2;0;2;2;2;2;2;2;0;1;0;2;0;1;
217;OK;0;1;0;0;0;1;1;2;0;2;0;1;1;2;2;2;1;1;2;2;2;2;2;2;0;1;0;2;0;2;0;1;1;1;0;0;1;1;2;0;1;0;0;0;0;0;0;0;0;0;0;0;2;0;0;0;0;0;0;2;0;0;2;2;2;2;0;2;2;2;2;2;2;0;1;0;2;0;1;
218;OK;0;1;0;0;0;1;1;2;0;2;0;1;1;2;2;2;1;1;2;2;2;2;2;2;1;1;0;2;0;2;0;1;1;1;0;0;1;1;2;0;1;0;0;0;0;0;0;0;0;0;0;0;2;0;0;0;0;0;0;2;0;0;2;2;2;2;0;2;2;2;2;2;2;0;1;0;2;0;1;
219;OK;0;1;0;0;0;1;1;2;0;2;0;1;1;2;2;2;1;1;2;2;2;2;2;2;0;0;0;0;1;2;0;1;1;1;0;0;1;1;2;0;1;0;0;0;0;0;0;0;0;0;0;0;2;0;0;0;0;0;0;2;0;0;2;2;2;2;0;2;2;2;2;2;2;0;1;0;2;0;1;
220;OK;0;1;0;0;0;1;1;2;0;2;0;1;1;2;2;2;1;1;2;2;2;2;2;2;0;1;0;0;1;2;0;1;1;1;0;0;1;1;2;0;1;0;0;0;0;0;0;0;0;0;0;0;2;0;0;0;0;0;0;2;0;0;2;2;2;2;0;2;2;2;2;2;2;0;1;0;2;0;1;
221;OK;0;1;0;0;0;1;1;2;0;2;0;1;1;2;2;2;1;1;2;2;2;2;2;2;1;1;0;0;1;2;0;1;1;1;0;0;1;1;2;0;1;0;0;0;0;0;0;0;0;0;0;0;2;0;0;0;0;0;0;2;0;0;2;2;2;2;0;2;2;2;2;2;2;0;1;0;2;0;1;
222;OK;0;1;0;0;0;1;1;2;0;2;0;1;1;2;2;2;1;1;2;2;2;2;2;2;0;0;0;1;1;2;0;1;1;1;0;0;1;1;2;0;1;0;0;0;0;0;0;0;0;0;0;0;2;0;0;0;0;0;0;2;0;0;2;2;2;2;0;2;2;2;2;2;2;0;1;0;2;0;1;
223;OK;0;1;0;0;0;1;1;2;0;2;0;1;1;2;2;2;1;1;2;2;2;2;2;2;0;1;0;1;1;2;0;1;1;1;0;0;1;1;2;0;1;0;0;0;0;0;0;0;0;0;0;0;2;0;0;0;0;0;0;2;0;0;2;2;2;2;0;2;2;2;2;2;2;0;1;0;2;0;1;
224;OK;0;1;0;0;0;1;1;2;0;2;0;1;1;2;2;2;1;1;2;2;2;2;2;2;1;1;0;1;1;2;0;1;1;1;0;0;1;1;2;0;1;0;0;0;0;0;0;0;0;0;0;0;2;0;0;0;0;0;0;2;0;0;2;2;2;2;0;2;2;2;2;2;2;0;1;0;2;0;1;
225;OK;0;1;0;0;0;1;1;2;0;2;0;1;1;2;2;2;1;1;2;2;2;2;2;2;0;0;1;1;1;2;0;1;1;1;0;0;1;1;2;0;1;0;0;0;0;0;0;0;0;0;0;0;2;0;0;0;0;0;0;2;0;0;2;2;2;2;0;2;2;2;2;2;2;0;1;0;2;0;1;
226;OK;0;1;0;0;0;1;1;2;0;2;0;1;1;2;2;2;1;1;2;2;2;2;2;2;0;1;1;1;1;2;0;1;1;1;0;0;1;1;2;0;1;0;0;0;0;0;0;0;0;0;0;0;2;0;0;0;0;0;0;2;0;0;2;2;2;2;0;2;2;2;2;2;2;0;1;0;2;0;1;
227;OK;0;1;0;0;0;1;1;2;0;2;0;1;1;2;2;2;1;1;2;2;2;2;2;2;1;1;1;1;1;2;0;1;1;1;0;0;1;1;2;0;1;0;0;0;0;0;0;0;0;0;0;0;2;0;0;0;0;0;0;2;0;0;2;2;2;2;0;2;2;2;2;2;2;0;1;0;2;0;1;
228;OK;0;1;0;0;0;1;1;2;0;2;0;1;1;2;2;2;1;1;2;2;2;2;2;2;0;0;0;2;1;2;0;1;1;1;0;0;1;1;2;0;1;0;0;0;0;0;0;0;0;0;0;0;2;0;0;0;0;0;0;2;0;0;2;2;2;2;0;2;2;2;2;2;2;0;1;0;2;0;1;
229;OK;0;1;0;0;0;1;1;2;0;2;0;1;1;2;2;2;1;1;2;2;2;2;2;2;0;1;0;2;1;2;0;1;1;1;0;0;1;1;2;0;1;0;0;0;0;0;0;0;0;0;0;0;2;0;0;0;0;0;0;2;0;0;2;2;2;2;0;2;2;2;2;2;2;0;1;0;2;0;1;
230;OK;0;1;0;0;0;1;1;2;0;2;0;1;1;2;2;2;1;1;2;2;2;2;2;2;1;1;0;2;1;2;0;1;1;1;0;0;1;1;2;0;1;0;0;0;0;0;0;0;0;0;0;0;2;0;0;0;0;0;0;2;0;0;2;2;2;2;0;2;2;2;2;2;2;0;1;0;2;0;1;
231;OK;0;1;0;0;0;1;1;2;0;2;0;1;1;2;2;2;1;1;2;2;2;2;2;2;0;0;1;2;1;2;0;1;1;1;0;0;1;1;2;0;1;0;0;0;0;0;0;0;0;0;0;0;2;0;0;0;0;0;0;2;0;0;2;2;2;2;0;2;2;2;2;2;2;0;1;0;2;0;1;
232;OK;0;1;0;0;0;1;1;2;0;2;0;1;1;2;2;2;1;1;2;2;2;2;2;2;0;1;1;2;1;2;0;1;1;1;0;0;1;1;2;0;1;0;0;0;0;0;0;0;0;0;0;0;2;0;0;0;0;0;0;2;0;0;2;2;2;2;0;2;2;2;2;2;2;0;1;0;2;0;1;
233;OK;0;1;0;0;0;1;1;2;0;2;0;1;1;2;2;2;1;1;2;2;2;2;2;2;1;1;1;2;1;2;0;1;1;1;0;0;1;1;2;0;1;0;0;0;0;0;0;0;0;0;0;0;2;0;0;0;0;0;0;2;0;0;2;2;2;2;0;2;2;2;2;2;2;0;1;0;2;0;1;
234;OK;0;1;0;0;0;1;1;2;0;2;0;1;1;2;2;2;1;1;2;2;2;2;2;2;0;1;0;0;2;2;0;1;1;1;0;0;1;1;2;0;1;0;0;0;0;0;0;0;0;0;0;0;2;0;0;0;0;0;0;2;0;0;2;2;2;2;0;2;2;2;2;2;2;0;1;0;2;0;1;
235;OK;0;1;0;0;0;1;1;2;0;2;0;1;1;2;2;2;1;1;2;2;2;2;2;2;1;1;0;0;2;2;0;1;1;1;0;0;1;1;2;0;1;0;0;0;0;0;0;0;0;0;0;0;2;0;0;0;0;0;0;2;0;0;2;2;2;2;0;2;2;2;2;2;2;0;1;0;2;0;1;
236;OK;0;1;0;0;0;1;1;2;0;2;0;1;1;2;2;2;1;1;2;2;2;2;2;2;0;1;0;1;2;2;0;1;1;1;0;0;1;1;2;0;1;0;0;0;0;0;0;0;0;0;0;0;2;0;0;0;0;0;0;2;0;0;2;2;2;2;0;2;2;2;2;2;2;0;1;0;2;0;1;
237;OK;0;1;0;0;0;1;1;2;0;2;0;1;1;2;2;2;1;1;2;2;2;2;2;2;1;1;0;1;2;2;0;1;1;1;0;0;1;1;2;0;1;0;0;0;0;0;0;0;0;0;0;0;2;0;0;0;0;0;0;2;0;0;2;2;2;2;0;2;2;2;2;2;2;0;1;0;2;0;1;
238;OK;0;1;0;0;0;1;1;2;0;2;0;1;1;2;2;2;1;1;2;2;2;2;2;2;0;1;1;1;2;2;0;1;1;1;0;0;1;1;2;0;1;0;0;0;0;0;0;0;0;0;0;0;2;0;0;0;0;0;0;2;0;0;2;2;2;2;0;2;2;2;2;2;2;0;1;0;2;0;1;
239;OK;0;1;0;0;0;1;1;2;0;2;0;1;1;2;2;2;1;1;2;2;2;2;2;2;1;1;1;1;2;2;0;1;1;1;0;0;1;1;2;0;1;0;0;0;0;0;0;0;0;0;0;0;2;0;0;0;0;0;0;2;0;0;2;2;2;2;0;2;2;2;2;2;2;0;1;0;2;0;1;
240;OK;0;1;0;0;0;1;1;2;0;2;0;1;1;2;2;2;1;1;2;2;2;2;2;2;0;1;0;2;2;2;0;1;1;1;0;0;1;1;2;0;1;0;0;0;0;0;0;0;0;0;0;0;2;0;0;0;0;0;0;2;0;0;2;2;2;2;0;2;2;2;2;2;2;0;1;0;2;0;1;
241;OK;0;1;0;0;0;1;1;2;0;2;0;1;1;2;2;2;1;1;2;2;2;2;2;2;1;1;0;2;2;2;0;1;1;1;0;0;1;1;2;0;1;0;0;0;0;0;0;0;0;0;0;0;2;0;0;0;0;0;0;2;0;0;2;2;2;2;0;2;2;2;2;2;2;0;1;0;2;0;1;
242;OK;0;1;0;0;0;1;1;2;0;2;0;1;1;2;2;2;1;1;2;2;2;2;2;2;0;1;1;2;2;2;0;1;1;1;0;0;1;1;2;0;1;0;0;0;0;0;0;0;0;0;0;0;2;0;0;0;0;0;0;2;0;0;2;2;2;2;0;2;2;2;2;2;2;0;1;0;2;0;1;
243;OK;0;1;0;0;0;1;1;2;0;2;0;1;1;2;2;2;1;1;2;2;2;2;2;2;1;1;1;2;2;2;0;1;1;1;0;0;1;1;2;0;1;0;0;0;0;0;0;0;0;0;0;0;2;0;0;0;0;0;0;2;0;0;2;2;2;2;0;2;2;2;2;2;2;0;1;0;2;0;1;
244;OK;0;1;0;0;0;1;1;2;0;2;0;1;1;2;2;2;1;1;2;2;2;2;2;2;0;1;2;2;2;2;0;1;1;1;0;0;1;1;2;0;1;0;0;0;0;0;0;0;0;0;0;0;2;0;0;0;0;0;0;2;0;0;2;2;2;2;0;2;2;2;2;2;2;0;1;0;2;0;1;
245;OK;0;1;0;0;0;1;1;2;0;2;0;1;1;2;2;2;1;1;2;2;2;2;2;2;0;0;0;0;0;0;0;1;1;1;0;0;1;2;2;0;1;0;0;0;0;0;0;0;0;0;0;0;2;0;0;0;0;0;0;2;0;0;2;2;2;2;0;2;2;2;2;2;2;0;1;0;2;0;1;
246;OK;0;1;0;0;0;1;1;2;0;2;0;1;1;2;2;2;1;1;2;2;2;2;2;2;0;1;0;0;0;0;0;1;1;1;0;0;1;2;2;0;1;0;0;0;0;0;0;0;0;0;0;0;2;0;0;0;0;0;0;2;0;0;2;2;2;2;0;2;2;2;2;2;2;0;1;0;2;0;1;
247;OK;0;1;0;0;0;1;1;2;0;2;0;1;1;2;2;2;1;1;2;2;2;2;2;2;1;1;0;0;0;0;0;1;1;1;0;0;1;2;2;0;1;0;0;0;0;0;0;0;0;0;0;0;2;0;0;0;0;0;0;2;0;0;2;2;2;2;0;2;2;2;2;2;2;0;1;0;2;0;1;
248;OK;0;1;0;0;0;1;1;2;0;2;0;1;1;2;2;2;1;1;2;2;2;2;2;2;0;0;0;0;0;1;0;1;1;1;0;0;1;2;2;0;1;0;0;0;0;0;0;0;0;0;0;0;2;0;0;0;0;0;0;2;0;0;2;2;2;2;0;2;2;2;2;2;2;0;1;0;2;0;1;
249;OK;0;1;0;0;0;1;1;2;0;2;0;1;1;2;2;2;1;1;2;2;2;2;2;2;0;1;0;0;0;1;0;1;1;1;0;0;1;2;2;0;1;0;0;0;0;0;0;0;0;0;0;0;2;0;0;0;0;0;0;2;0;0;2;2;2;2;0;2;2;2;2;2;2;0;1;0;2;0;1;
250;OK;0;1;0;0;0;1;1;2;0;2;0;1;1;2;2;2;1;1;2;2;2;2;2;2;1;1;0;0;0;1;0;1;1;1;0;0;1;2;2;0;1;0;0;0;0;0;0;0;0;0;0;0;2;0;0;0;0;0;0;2;0;0;2;2;2;2;0;2;2;2;2;2;2;0;1;0;2;0;1;
251;OK;0;1;0;0;0;1;1;2;0;2;0;1;1;2;2;2;1;1;2;2;2;2;2;2;0;0;0;1;0;1;0;1;1;1;0;0;1;2;2;0;1;0;0;0;0;0;0;0;0;0;0;0;2;0;0;0;0;0;0;2;0;0;2;2;2;2;0;2;2;2;2;2;2;0;1;0;2;0;1;
252;OK;0;1;0;0;0;1;1;2;0;2;0;1;1;2;2;2;1;1;2;2;2;2;2;2;0;1;0;1;0;1;0;1;1;1;0;0;1;2;2;0;1;0;0;0;0;0;0;0;0;0;0;0;2;0;0;0;0;0;0;2;0;0;2;2;2;2;0;2;2;2;2;2;2;0;1;0;2;0;1;
253;OK;0;1;0;0;0;1;1;2;0;2;0;1;1;2;2;2;1;1;2;2;2;2;2;2;1;1;0;1;0;1;0;1;1;1;0;0;1;2;2;0;1;0;0;0;0;0;0;0;0;0;0;0;2;0;0;0;0;0;0;2;0;0;2;2;2;2;0;2;2;2;2;2;2;0;1;0;2;0;1;
254;OK;0;1;0;0;0;1;1;2;0;2;0;1;1;2;2;2;1;1;2;2;2;2;2;2;0;0;0;0;1;1;0;1;1;1;0;0;1;2;2;0;1;0;0;0;0;0;0;0;0;0;0;0;2;0;0;0;0;0;0;2;0;0;2;2;2;2;0;2;2;2;2;2;2;0;1;0;2;0;1;
255;OK;0;1;0;0;0;1;1;2;0;2;0;1;1;2;2;2;1;1;2;2;2;2;2;2;0;1;0;0;1;1;0;1;1;1;0;0;1;2;2;0;1;0;0;0;0;0;0;0;0;0;0;0;2;0;0;0;0;0;0;2;0;0;2;2;2;2;0;2;2;2;2;2;2;0;1;0;2;0;1;
256;OK;0;1;0;0;0;1;1;2;0;2;0;1;1;2;2;2;1;1;2;2;2;2;2;2;1;1;0;0;1;1;0;1;1;1;0;0;1;2;2;0;1;0;0;0;0;0;0;0;0;0;0;0;2;0;0;0;0;0;0;2;0;0;2;2;2;2;0;2;2;2;2;2;2;0;1;0;2;0;1;
257;OK;0;1;0;0;0;1;1;2;0;2;0;1;1;2;2;2;1;1;2;2;2;2;2;2;0;0;0;1;1;1;0;1;1;1;0;0;1;2;2;0;1;0;0;0;0;0;0;0;0;0;0;0;2;0;0;0;0;0;0;2;0;0;2;2;2;2;0;2;2;2;2;2;2;0;1;0;2;0;1;
258;OK;0;1;0;0;0;1;1;2;0;2;0;1;1;2;2;2;1;1;2;2;2;2;2;2;0;1;0;1;1;1;0;1;1;1;0;0;1;2;2;0;1;0;0;0;0;0;0;0;0;0;0;0;2;0;0;0;0;0;0;2;0;0;2;2;2;2;0;2;2;2;2;2;2;0;1;0;2;0;1;
259;OK;0;1;0;0;0;1;1;2;0;2;0;1;1;2;2;2;1;1;2;2;2;2;2;2;1;1;0;1;1;1;0;1;1;1;0;0;1;2;2;0;1;0;0;0;0;0;0;0;0;0;0;0;2;0;0;0;0;0;0;2;0;0;2;2;2;2;0;2;2;2;2;2;2;0;1;0;2;0;1;
260;OK;0;1;0;0;0;1;1;2;0;2;0;1;1;2;2;2;1;1;2;2;2;2;2;2;0;0;1;1;1;1;0;1;1;1;0;0;1;2;2;0;1;0;0;0;0;0;0;0;0;0;0;0;2;0;0;0;0;0;0;2;0;0;2;2;2;2;0;2;2;2;2;2;2;0;1;0;2;0;1;
261;OK;0;1;0;0;0;1;1;2;0;2;0;1;1;2;2;2;1;1;2;2;2;2;2;2;0;1;1;1;1;1;0;1;1;1;0;0;1;2;2;0;1;0;0;0;0;0;0;0;0;0;0;0;2;0;0;0;0;0;0;2;0;0;2;2;2;2;0;2;2;2;2;2;2;0;1;0;2;0;1;
262;OK;0;1;0;0;0;1;1;2;0;2;0;1;1;2;2;2;1;1;2;2;2;2;2;2;1;1;1;1;1;1;0;1;1;1;0;0;1;2;2;0;1;0;0;0;0;0;0;0;0;0;0;0;2;0;0;0;0;0;0;2;0;0;2;2;2;2;0;2;2;2;2;2;2;0;1;0;2;0;1;
263;OK;0;1;0;0;0;1;1;2;0;2;0;1;1;2;2;2;1;1;2;2;2;2;2;2;0;0;0;0;0;2;0;1;1;1;0;0;1;2;2;0;1;0;0;0;0;0;0;0;0;0;0;0;2;0;0;0;0;0;0;2;0;0;2;2;2;2;0;2;2;2;2;2;2;0;1;0;2;0;1;
264;OK;0;1;0;0;0;1;1;2;0;2;0;1;1;2;2;2;1;1;2;2;2;2;2;2;0;1;0;0;0;2;0;1;1;1;0;0;1;2;2;0;1;0;0;0;0;0;0;0;0;0;0;0;2;0;0;0;0;0;0;2;0;0;2;2;2;2;0;2;2;2;2;2;2;0;1;0;2;0;1;
265;OK;0;1;0;0;0;1;1;2;0;2;0;1;1;2;2;2;1;1;2;2;2;2;2;2;1;1;0;0;0;2;0;1;1;1;0;0;1;2;2;0;1;0;0;0;0;0;0;0;0;0;0;0;2;0;0;0;0;0;0;2;0;0;2;2;2;2;0;2;2;2;2;2;2;0;1;0;2;0;1;
266;OK;0;1;0;0;0;1;1;2;0;2;0;1;1;2;2;2;1;1;2;2;2;2;2;2;0;0;0;1;0;2;0;1;1;1;0;0;1;2;2;0;1;0;0;0;0;0;0;0;0;0;0;0;2;0;0;0;0;0;0;2;0;0;2;2;2;2;0;2;2;2;2;2;2;0;1;0;2;0;1;
267;OK;0;1;0;0;0;1;1;2;0;2;0;1;1;2;2;2;1;1;2;2;2;2;2;2;0;1;0;1;0;2;0;1;1;1;0;0;1;2;2;0;1;0;0;0;0;0;0;0;0;0;0;0;2;0;0;0;0;0;0;2;0;0;2;2;2;2;0;2;2;2;2;2;2;0;1;0;2;0;1;
268;OK;0;1;0;0;0;1;1;2;0;2;0;1;1;2;2;2;1;1;2;2;2;2;2;2;1;1;0;1;0;2;0;1;1;1;0;0;1;2;2;0;1;0;0;0;0;0;0;0;0;0;0;0;2;0;0;0;0;0;0;2;0;0;2;2;2;2;0;2;2;2;2;2;2;0;1;0;2;0;1;
269;OK;0;1;0;0;0;1;1;2;0;2;0;1;1;2;2;2;1;1;2;2;2;2;2;2;0;0;0;2;0;2;0;1;1;1;0;0;1;2;2;0;1;0;0;0;0;0;0;0;0;0;0;0;2;0;0;0;0;0;0;2;0;0;2;2;2;2;0;2;2;2;2;2;2;0;1;0;2;0;1;
270;OK;0;1;0;0;0;1;1;2;0;2;0;1;1;2;2;2;1;1;2;2;2;2;2;2;0;1;0;2;0;2;0;1;1;1;0;0;1;2;2;0;1;0;0;0;0;0;0;0;0;0;0;0;2;0;0;0;0;0;0;2;0;0;2;2;2;2;0;2;2;2;2;2;2;0;1;0;2;0;1;
271;OK;0;1;0;0;0;1;1;2;0;2;0;1;1;2;2;2;1;1;2;2;2;2;2;2;1;1;0;2;0;2;0;1;1;1;0;0;1;2;2;0;1;0;0;0;0;0;0;0;0;0;0;0;2;0;0;0;0;0;0;2;0;0;2;2;2;2;0;2;2;2;2;2;2;0;1;0;2;0;1;
272;OK;0;1;0;0;0;1;1;2;0;2;0;1;1;2;2;2;1;1;2;2;2;2;2;2;0;0;0;0;1;2;0;1;1;1;0;0;1;2;2;0;1;0;0;0;0;0;0;0;0;0;0;0;2;0;0;0;0;0;0;2;0;0;2;2;2;2;0;2;2;2;2;2;2;0;1;0;2;0;1;
273;OK;0;1;0;0;0;1;1;2;0;2;0;1;1;2;2;2;1;1;2;2;2;2;2;2;0;1;0;0;1;2;0;1;1;1;0;0;1;2;2;0;1;0;0;0;0;0;0;0;0;0;0;0;2;0;0;0;0;0;0;2;0;0;2;2;2;2;0;2;2;2;2;2;2;0;1;0;2;0;1;
274;OK;0;1;0;0;0;1;1;2;0;2;0;1;1;2;2;2;1;1;2;2;2;2;2;2;1;1;0;0;1;2;0;1;1;1;0;0;1;2;2;0;1;0;0;0;0;0;0;0;0;0;0;0;2;0;0;0;0;0;0;2;0;0;2;2;2;2;0;2;2;2;2;2;2;0;1;0;2;0;1;
275;OK;0;1;0;0;0;1;1;2;0;2;0;1;1;2;2;2;1;1;2;2;2;2;2;2;0;0;0;1;1;2;0;1;1;1;0;0;1;2;2;0;1;0;0;0;0;0;0;0;0;0;0;0;2;0;0;0;0;0;0;2;0;0;2;2;2;2;0;2;2;2;2;2;2;0;1;0;2;0;1;
276;OK;0;1;0;0;0;1;1;2;0;2;0;1;1;2;2;2;1;1;2;2;2;2;2;2;0;1;0;1;1;2;0;1;1;1;0;0;1;2;2;0;1;0;0;0;0;0;0;0;0;0;0;0;2;0;0;0;0;0;0;2;0;0;2;2;2;2;0;2;2;2;2;2;2;0;1;0;2;0;1;
277;OK;0;1;0;0;0;1;1;2;0;2;0;1;1;2;2;2;1;1;2;2;2;2;2;2;1;1;0;1;1;2;0;1;1;1;0;0;1;2;2;0;1;0;0;0;0;0;0;0;0;0;0;0;2;0;0;0;0;0;0;2;0;0;2;2;2;2;0;2;2;2;2;2;2;0;1;0;2;0;1;
278;OK;0;1;0;0;0;1;1;2;0;2;0;1;1;2;2;2;1;1;2;2;2;2;2;2;0;0;1;1;1;2;0;1;1;1;0;0;1;2;2;0;1;0;0;0;0;0;0;0;0;0;0;0;2;0;0;0;0;0;0;2;0;0;2;2;2;2;0;2;2;2;2;2;2;0;1;0;2;0;1;
279;OK;0;1;0;0;0;1;1;2;0;2;0;1;1;2;2;2;1;1;2;2;2;2;2;2;0;1;1;1;1;2;0;1;1;1;0;0;1;2;2;0;1;0;0;0;0;0;0;0;0;0;0;0;2;0;0;0;0;0;0;2;0;0;2;2;2;2;0;2;2;2;2;2;2;0;1;0;2;0;1;
280;OK;0;1;0;0;0;1;1;2;0;2;0;1;1;2;2;2;1;1;2;2;2;2;2;2;1;1;1;1;1;2;0;1;1;1;0;0;1;2;2;0;1;0;0;0;0;0;0;0;0;0;0;0;2;0;0;0;0;0;0;2;0;0;2;2;2;2;0;2;2;2;2;2;2;0;1;0;2;0;1;
281;OK;0;1;0;0;0;1;1;2;0;2;0;1;1;2;2;2;1;1;2;2;2;2;2;2;0;0;0;2;1;2;0;1;1;1;0;0;1;2;2;0;1;0;0;0;0;0;0;0;0;0;0;0;2;0;0;0;0;0;0;2;0;0;2;2;2;2;0;2;2;2;2;2;2;0;1;0;2;0;1;
282;OK;0;1;0;0;0;1;1;2;0;2;0;1;1;2;2;2;1;1;2;2;2;2;2;2;0;1;0;2;1;2;0;1;1;1;0;0;1;2;2;0;1;0;0;0;0;0;0;0;0;0;0;0;2;0;0;0;0;0;0;2;0;0;2;2;2;2;0;2;2;2;2;2;2;0;1;0;2;0;1;
283;OK;0;1;0;0;0;1;1;2;0;2;0;1;1;2;2;2;1;1;2;2;2;2;2;2;1;1;0;2;1;2;0;1;1;1;0;0;1;2;2;0;1;0;0;0;0;0;0;0;0;0;0;0;2;0;0;0;0;0;0;2;0;0;2;2;2;2;0;2;2;2;2;2;2;0;1;0;2;0;1;
284;OK;0;1;0;0;0;1;1;2;0;2;0;1;1;2;2;2;1;1;2;2;2;2;2;2;0;0;1;2;1;2;0;1;1;1;0;0;1;2;2;0;1;0;0;0;0;0;0;0;0;0;0;0;2;0;0;0;0;0;0;2;0;0;2;2;2;2;0;2;2;2;2;2;2;0;1;0;2;0;1;
285;OK;0;1;0;0;0;1;1;2;0;2;0;1;1;2;2;2;1;1;2;2;2;2;2;2;0;1;1;2;1;2;0;1;1;1;0;0;1;2;2;0;1;0;0;0;0;0;0;0;0;0;0;0;2;0;0;0;0;0;0;2;0;0;2;2;2;2;0;2;2;2;2;2;2;0;1;0;2;0;1;
286;OK;0;1;0;0;0;1;1;2;0;2;0;1;1;2;2;2;1;1;2;2;2;2;2;2;1;1;1;2;1;2;0;1;1;1;0;0;1;2;2;0;1;0;0;0;0;0;0;0;0;0;0;0;2;0;0;0;0;0;0;2;0;0;2;2;2;2;0;2;2;2;2;2;2;0;1;0;2;0;1;
287;OK;0;1;0;0;0;1;1;2;0;2;0;1;1;2;2;2;1;1;2;2;2;2;2;2;0;1;0;0;2;2;0;1;1;1;0;0;1;2;2;0;1;0;0;0;0;0;0;0;0;0;0;0;2;0;0;0;0;0;0;2;0;0;2;2;2;2;0;2;2;2;2;2;2;0;1;0;2;0;1;
288;OK;0;1;0;0;0;1;1;2;0;2;0;1;1;2;2;2;1;1;2;2;2;2;2;2;1;1;0;0;2;2;0;1;1;1;0;0;1;2;2;0;1;0;0;0;0;0;0;0;0;0;0;0;2;0;0;0;0;0;0;2;0;0;2;2;2;2;0;2;2;2;2;2;2;0;1;0;2;0;1;
289;OK;0;1;0;0;0;1;1;2;0;2;0;1;1;2;2;2;1;1;2;2;2;2;2;2;0;1;0;1;2;2;0;1;1;1;0;0;1;2;2;0;1;0;0;0;0;0;0;0;0;0;0;0;2;0;0;0;0;0;0;2;0;0;2;2;2;2;0;2;2;2;2;2;2;0;1;0;2;0;1;
290;OK;0;1;0;0;0;1;1;2;0;2;0;1;1;2;2;2;1;1;2;2;2;2;2;2;1;1;0;1;2;2;0;1;1;1;0;0;1;2;2;0;1;0;0;0;0;0;0;0;0;0;0;0;2;0;0;0;0;0;0;2;0;0;2;2;2;2;0;2;2;2;2;2;2;0;1;0;2;0;1;
291;OK;0;1;0;0;0;1;1;2;0;2;0;1;1;2;2;2;1;1;2;2;2;2;2;2;0;1;1;1;2;2;0;1;1;1;0;0;1;2;2;0;1;0;0;0;0;0;0;0;0;0;0;0;2;0;0;0;0;0;0;2;0;0;2;2;2;2;0;2;2;2;2;2;2;0;1;0;2;0;1;
292;OK;0;1;0;0;0;1;1;2;0;2;0;1;1;2;2;2;1;1;2;2;2;2;2;2;1;1;1;1;2;2;0;1;1;1;0;0;1;2;2;0;1;0;0;0;0;0;0;0;0;0;0;0;2;0;0;0;0;0;0;2;0;0;2;2;2;2;0;2;2;2;2;2;2;0;1;0;2;0;1;
293;OK;0;1;0;0;0;1;1;2;0;2;0;1;1;2;2;2;1;1;2;2;2;2;2;2;0;1;0;2;2;2;0;1;1;1;0;0;1;2;2;0;1;0;0;0;0;0;0;0;0;0;0;0;2;0;0;0;0;0;0;2;0;0;2;2;2;2;0;2;2;2;2;2;2;0;1;0;2;0;1;
294;OK;0;1;0;0;0;1;1;2;0;2;0;1;1;2;2;2;1;1;2;2;2;2;2;2;1;1;0;2;2;2;0;1;1;1;0;0;1;2;2;0;1;0;0;0;0;0;0;0;0;0;0;0;2;0;0;0;0;0;0;2;0;0;2;2;2;2;0;2;2;2;2;2;2;0;1;0;2;0;1;
295;OK;0;1;0;0;0;1;1;2;0;2;0;1;1;2;2;2;1;1;2;2;2;2;2;2;0;1;1;2;2;2;0;1;1;1;0;0;1;2;2;0;1;0;0;0;0;0;0;0;0;0;0;0;2;0;0;0;0;0;0;2;0;0;2;2;2;2;0;2;2;2;2;2;2;0;1;0;2;0;1;
296;OK;0;1;0;0;0;1;1;2;0;2;0;1;1;2;2;2;1;1;2;2;2;2;2;2;1;1;1;2;2;2;0;1;1;1;0;0;1;2;2;0;1;0;0;0;0;0;0;0;0;0;0;0;2;0;0;0;0;0;0;2;0;0;2;2;2;2;0;2;2;2;2;2;2;0;1;0;2;0;1;
297;OK;0;1;0;0;0;1;1;2;0;2;0;1;1;2;2;2;1;1;2;2;2;2;2;2;0;1;2;2;2;2;0;1;1;1;0;0;1;2;2;0;1;0;0;0;0;0;0;0;0;0;0;0;2;0;0;0;0;0;0;2;0;0;2;2;2;2;0;2;2;2;2;2;2;0;1;0;2;0;1;
298;KO;0;1;0;0;0;1;1;2;0;2;0;1;1;2;2;2;1;1;2;2;2;2;2;2;0;0;0;0;1;1;0;1;1;1;0;0;1;0;0;0;1;0;0;0;0;0;0;0;0;0;0;0;2;0;0;0;0;0;0;2;0;0;2;2;2;2;0;2;2;2;2;2;2;0;1;0;2;0;1;"[EF(EG((FERM=0)))]"
299;KO;0;1;0;0;0;1;1;2;0;2;0;1;1;2;2;2;1;1;2;2;2;2;2;2;0;0;0;1;1;1;0;1;1;1;0;0;1;0;0;0;1;0;0;0;0;0;0;0;0;0;0;0;2;0;0;0;0;0;0;2;0;0;2;2;2;2;0;2;2;2;2;2;2;0;1;0;2;0;1;"[EF(EG((FERM=0)))]"
300;KO;0;1;0;0;0;1;1;2;0;2;0;1;1;2;2;2;1;1;2;2;2;2;2;2;0;0;1;1;1;1;0;1;1;1;0;0;1;0;0;0;1;0;0;0;0;0;0;0;0;0;0;0;2;0;0;0;0;0;0;2;0;0;2;2;2;2;0;2;2;2;2;2;2;0;1;0;2;0;1;"[EF(EG((FERM=0)))]"
301;KO;0;1;0;0;0;1;1;2;0;2;0;1;1;2;2;2;1;1;2;2;2;2;2;2;0;0;0;0;1;2;0;1;1;1;0;0;1;0;0;0;1;0;0;0;0;0;0;0;0;0;0;0;2;0;0;0;0;0;0;2;0;0;2;2;2;2;0;2;2;2;2;2;2;0;1;0;2;0;1;"[EF(EG((FERM=0)))]"
302;KO;0;1;0;0;0;1;1;2;0;2;0;1;1;2;2;2;1;1;2;2;2;2;2;2;0;0;0;1;1;2;0;1;1;1;0;0;1;0;0;0;1;0;0;0;0;0;0;0;0;0;0;0;2;0;0;0;0;0;0;2;0;0;2;2;2;2;0;2;2;2;2;2;2;0;1;0;2;0;1;"[EF(EG((FERM=0)))]"
303;KO;0;1;0;0;0;1;1;2;0;2;0;1;1;2;2;2;1;1;2;2;2;2;2;2;0;0;1;1;1;2;0;1;1;1;0;0;1;0;0;0;1;0;0;0;0;0;0;0;0;0;0;0;2;0;0;0;0;0;0;2;0;0;2;2;2;2;0;2;2;2;2;2;2;0;1;0;2;0;1;"[EF(EG((FERM=0)))]"
304;KO;0;1;0;0;0;1;1;2;0;2;0;1;1;2;2;2;1;1;2;2;2;2;2;2;0;0;0;2;1;2;0;1;1;1;0;0;1;0;0;0;1;0;0;0;0;0;0;0;0;0;0;0;2;0;0;0;0;0;0;2;0;0;2;2;2;2;0;2;2;2;2;2;2;0;1;0;2;0;1;"[EF(EG((FERM=0)))]"
305;KO;0;1;0;0;0;1;1;2;0;2;0;1;1;2;2;2;1;1;2;2;2;2;2;2;0;0;1;2;1;2;0;1;1;1;0;0;1;0;0;0;1;0;0;0;0;0;0;0;0;0;0;0;2;0;0;0;0;0;0;2;0;0;2;2;2;2;0;2;2;2;2;2;2;0;1;0;2;0;1;"[EF(EG((FERM=0)))]"
306;KO;0;1;0;0;0;1;1;2;0;2;0;1;1;2;2;2;1;1;2;2;2;2;2;2;0;0;0;0;2;2;0;1;1;1;0;0;1;0;0;0;1;0;0;0;0;0;0;0;0;0;0;0;2;0;0;0;0;0;0;2;0;0;2;2;2;2;0;2;2;2;2;2;2;0;1;0;2;0;1;"[EF(EG((FERM=0)))]"
307;KO;0;1;0;0;0;1;1;2;0;2;0;1;1;2;2;2;1;1;2;2;2;2;2;2;0;0;0;1;2;2;0;1;1;1;0;0;1;0;0;0;1;0;0;0;0;0;0;0;0;0;0;0;2;0;0;0;0;0;0;2;0;0;2;2;2;2;0;2;2;2;2;2;2;0;1;0;2;0;1;"[EF(EG((FERM=0)))]"
308;KO;0;1;0;0;0;1;1;2;0;2;0;1;1;2;2;2;1;1;2;2;2;2;2;2;0;0;1;1;2;2;0;1;1;1;0;0;1;0;0;0;1;0;0;0;0;0;0;0;0;0;0;0;2;0;0;0;0;0;0;2;0;0;2;2;2;2;0;2;2;2;2;2;2;0;1;0;2;0;1;"[EF(EG((FERM=0)))]"
309;KO;0;1;0;0;0;1;1;2;0;2;0;1;1;2;2;2;1;1;2;2;2;2;2;2;0;0;0;2;2;2;0;1;1;1;0;0;1;0;0;0;1;0;0;0;0;0;0;0;0;0;0;0;2;0;0;0;0;0;0;2;0;0;2;2;2;2;0;2;2;2;2;2;2;0;1;0;2;0;1;"[EF(EG((FERM=0)))]"
310;KO;0;1;0;0;0;1;1;2;0;2;0;1;1;2;2;2;1;1;2;2;2;2;2;2;0;0;1;2;2;2;0;1;1;1;0;0;1;0;0;0;1;0;0;0;0;0;0;0;0;0;0;0;2;0;0;0;0;0;0;2;0;0;2;2;2;2;0;2;2;2;2;2;2;0;1;0;2;0;1;"[EF(EG((FERM=0)))]"
311;KO;0;1;0;0;0;1;1;2;0;2;0;1;1;2;2;2;1;1;2;2;2;2;2;2;0;0;2;2;2;2;0;1;1;1;0;0;1;0;0;0;1;0;0;0;0;0;0;0;0;0;0;0;2;0;0;0;0;0;0;2;0;0;2;2;2;2;0;2;2;2;2;2;2;0;1;0;2;0;1;"[EF(EG((FERM=0)))]"
312;KO;0;1;0;0;0;1;1;2;0;2;0;1;1;2;2;2;1;1;2;2;2;2;2;2;0;0;0;0;1;1;0;1;1;1;0;0;1;0;1;0;1;0;0;0;0;0;0;0;0;0;0;0;2;0;0;0;0;0;0;2;0;0;2;2;2;2;0;2;2;2;2;2;2;0;1;0;2;0;1;"[EF(EG((FERM=0)))]"
313;KO;0;1;0;0;0;1;1;2;0;2;0;1;1;2;2;2;1;1;2;2;2;2;2;2;0;0;0;1;1;1;0;1;1;1;0;0;1;0;1;0;1;0;0;0;0;0;0;0;0;0;0;0;2;0;0;0;0;0;0;2;0;0;2;2;2;2;0;2;2;2;2;2;2;0;1;0;2;0;1;"[EF(EG((FERM=0)))]"
314;KO;0;1;0;0;0;1;1;2;0;2;0;1;1;2;2;2;1;1;2;2;2;2;2;2;0;0;1;1;1;1;0;1;1;1;0;0;1;0;1;0;1;0;0;0;0;0;0;0;0;0;0;0;2;0;0;0;0;0;0;2;0;0;2;2;2;2;0;2;2;2;2;2;2;0;1;0;2;0;1;"[EF(EG((FERM=0)))]"
315;KO;0;1;0;0;0;1;1;2;0;2;0;1;1;2;2;2;1;1;2;2;2;2;2;2;0;0;0;0;1;2;0;1;1;1;0;0;1;0;1;0;1;0;0;0;0;0;0;0;0;0;0;0;2;0;0;0;0;0;0;2;0;0;2;2;2;2;0;2;2;2;2;2;2;0;1;0;2;0;1;"[EF(EG((FERM=0)))]"
316;KO;0;1;0;0;0;1;1;2;0;2;0;1;1;2;2;2;1;1;2;2;2;2;2;2;0;0;0;1;1;2;0;1;1;1;0;0;1;0;1;0;1;0;0;0;0;0;0;0;0;0;0;0;2;0;0;0;0;0;0;2;0;0;2;2;2;2;0;2;2;2;2;2;2;0;1;0;2;0;1;"[EF(EG((FERM=0)))]"
317;KO;0;1;0;0;0;1;1;2;0;2;0;1;1;2;2;2;1;1;2;2;2;2;2;2;0;0;1;1;1;2;0;1;1;1;0;0;1;0;1;0;1;0;0;0;0;0;0;0;0;0;0;0;2;0;0;0;0;0;0;2;0;0;2;2;2;2;0;2;2;2;2;2;2;0;1;0;2;0;1;"[EF(EG((FERM=0)))]"
318;KO;0;1;0;0;0;1;1;2;0;2;0;1;1;2;2;2;1;1;2;2;2;2;2;2;0;0;0;2;1;2;0;1;1;1;0;0;1;0;1;0;1;0;0;0;0;0;0;0;0;0;0;0;2;0;0;0;0;0;0;2;0;0;2;2;2;2;0;2;2;2;2;2;2;0;1;0;2;0;1;"[EF(EG((FERM=0)))]"
319;KO;0;1;0;0;0;1;1;2;0;2;0;1;1;2;2;2;1;1;2;2;2;2;2;2;0;0;1;2;1;2;0;1;1;1;0;0;1;0;1;0;1;0;0;0;0;0;0;0;0;0;0;0;2;0;0;0;0;0;0;2;0;0;2;2;2;2;0;2;2;2;2;2;2;0;1;0;2;0;1;"[EF(EG((FERM=0)))]"
320;KO;0;1;0;0;0;1;1;2;0;2;0;1;1;2;2;2;1;1;2;2;2;2;2;2;0;0;0;0;2;2;0;1;1;1;0;0;1;0;1;0;1;0;0;0;0;0;0;0;0;0;0;0;2;0;0;0;0;0;0;2;0;0;2;2;2;2;0;2;2;2;2;2;2;0;1;0;2;0;1;"[EF(EG((FERM=0)))]"
321;KO;0;1;0;0;0;1;1;2;0;2;0;1;1;2;2;2;1;1;2;2;2;2;2;2;0;0;0;1;2;2;0;1;1;1;0;0;1;0;1;0;1;0;0;0;0;0;0;0;0;0;0;0;2;0;0;0;0;0;0;2;0;0;2;2;2;2;0;2;2;2;2;2;2;0;1;0;2;0;1;"[EF(EG((FERM=0)))]"
322;KO;0;1;0;0;0;1;1;2;0;2;0;1;1;2;2;2;1;1;2;2;2;2;2;2;0;0;1;1;2;2;0;1;1;1;0;0;1;0;1;0;1;0;0;0;0;0;0;0;0;0;0;0;2;0;0;0;0;0;0;2;0;0;2;2;2;2;0;2;2;2;2;2;2;0;1;0;2;0;1;"[EF(EG((FERM=0)))]"
323;KO;0;1;0;0;0;1;1;2;0;2;0;1;1;2;2;2;1;1;2;2;2;2;2;2;0;0;0;2;2;2;0;1;1;1;0;0;1;0;1;0;1;0;0;0;0;0;0;0;0;0;0;0;2;0;0;0;0;0;0;2;0;0;2;2;2;2;0;2;2;2;2;2;2;0;1;0;2;0;1;"[EF(EG((FERM=0)))]"
324;KO;0;1;0;0;0;1;1;2;0;2;0;1;1;2;2;2;1;1;2;2;2;2;2;2;0;0;1;2;2;2;0;1;1;1;0;0;1;0;1;0;1;0;0;0;0;0;0;0;0;0;0;0;2;0;0;0;0;0;0;2;0;0;2;2;2;2;0;2;2;2;2;2;2;0;1;0;2;0;1;"[EF(EG((FERM=0)))]"
325;KO;0;1;0;0;0;1;1;2;0;2;0;1;1;2;2;2;1;1;2;2;2;2;2;2;0;0;2;2;2;2;0;1;1;1;0;0;1;0;1;0;1;0;0;0;0;0;0;0;0;0;0;0;2;0;0;0;0;0;0;2;0;0;2;2;2;2;0;2;2;2;2;2;2;0;1;0;2;0;1;"[EF(EG((FERM=0)))]"
326;KO;0;1;0;0;0;1;1;2;0;2;0;1;1;2;2;2;1;1;2;2;2;2;2;2;0;0;0;0;1;1;0;1;1;1;0;0;1;1;1;0;1;0;0;0;0;0;0;0;0;0;0;0;2;0;0;0;0;0;0;2;0;0;2;2;2;2;0;2;2;2;2;2;2;0;1;0;2;0;1;"[EF(EG((FERM=0)))]"
327;KO;0;1;0;0;0;1;1;2;0;2;0;1;1;2;2;2;1;1;2;2;2;2;2;2;0;0;0;1;1;1;0;1;1;1;0;0;1;1;1;0;1;0;0;0;0;0;0;0;0;0;0;0;2;0;0;0;0;0;0;2;0;0;2;2;2;2;0;2;2;2;2;2;2;0;1;0;2;0;1;"[EF(EG((FERM=0)))]"
328;KO;0;1;0;0;0;1;1;2;0;2;0;1;1;2;2;2;1;1;2;2;2;2;2;2;0;0;1;1;1;1;0;1;1;1;0;0;1;1;1;0;1;0;0;0;0;0;0;0;0;0;0;0;2;0;0;0;0;0;0;2;0;0;2;2;2;2;0;2;2;2;2;2;2;0;1;0;2;0;1;"[EF(EG((FERM=0)))]"
329;KO;0;1;0;0;0;1;1;2;0;2;0;1;1;2;2;2;1;1;2;2;2;2;2;2;0;0;0;0;1;2;0;1;1;1;0;0;1;1;1;0;1;0;0;0;0;0;0;0;0;0;0;0;2;0;0;0;0;0;0;2;0;0;2;2;2;2;0;2;2;2;2;2;2;0;1;0;2;0;1;"[EF(EG((FERM=0)))]"
330;KO;0;1;0;0;0;1;1;2;0;2;0;1;1;2;2;2;1;1;2;2;2;2;2;2;0;0;0;1;1;2;0;1;1;1;0;0;1;1;1;0;1;0;0;0;0;0;0;0;0;0;0;0;2;0;0;0;0;0;0;2;0;0;2;2;2;2;0;2;2;2;2;2;2;0;1;0;2;0;1;"[EF(EG((FERM=0)))]"
331;KO;0;1;0;0;0;1;1;2;0;2;0;1;1;2;2;2;1;1;2;2;2;2;2;2;0;0;1;1;1;2;0;1;1;1;0;0;1;1;1;0;1;0;0;0;0;0;0;0;0;0;0;0;2;0;0;0;0;0;0;2;0;0;2;2;2;2;0;2;2;2;2;2;2;0;1;0;2;0;1;"[EF(EG((FERM=0)))]"
332;KO;0;1;0;0;0;1;1;2;0;2;0;1;1;2;2;2;1;1;2;2;2;2;2;2;0;0;0;2;1;2;0;1;1;1;0;0;1;1;1;0;1;0;0;0;0;0;0;0;0;0;0;0;2;0;0;0;0;0;0;2;0;0;2;2;2;2;0;2;2;2;2;2;2;0;1;0;2;0;1;"[EF(EG((FERM=0)))]"
333;KO;0;1;0;0;0;1;1;2;0;2;0;1;1;2;2;2;1;1;2;2;2;2;2;2;0;0;1;2;1;2;0;1;1;1;0;0;1;1;1;0;1;0;0;0;0;0;0;0;0;0;0;0;2;0;0;0;0;0;0;2;0;0;2;2;2;2;0;2;2;2;2;2;2;0;1;0;2;0;1;"[EF(EG((FERM=0)))]"
334;KO;0;1;0;0;0;1;1;2;0;2;0;1;1;2;2;2;1;1;2;2;2;2;2;2;0;0;0;0;2;2;0;1;1;1;0;0;1;1;1;0;1;0;0;0;0;0;0;0;0;0;0;0;2;0;0;0;0;0;0;2;0;0;2;2;2;2;0;2;2;2;2;2;2;0;1;0;2;0;1;"[EF(EG((FERM=0)))]"
335;KO;0;1;0;0;0;1;1;2;0;2;0;1;1;2;2;2;1;1;2;2;2;2;2;2;0;0;0;1;2;2;0;1;1;1;0;0;1;1;1;0;1;0;0;0;0;0;0;0;0;0;0;0;2;0;0;0;0;0;0;2;0;0;2;2;2;2;0;2;2;2;2;2;2;0;1;0;2;0;1;"[EF(EG((FERM=0)))]"
336;KO;0;1;0;0;0;1;1;2;0;2;0;1;1;2;2;2;1;1;2;2;2;2;2;2;0;0;1;1;2;2;0;1;1;1;0;0;1;1;1;0;1;0;0;0;0;0;0;0;0;0;0;0;2;0;0;0;0;0;0;2;0;0;2;2;2;2;0;2;2;2;2;2;2;0;1;0;2;0;1;"[EF(EG((FERM=0)))]"
337;KO;0;1;0;0;0;1;1;2;0;2;0;1;1;2;2;2;1;1;2;2;2;2;2;2;0;0;0;2;2;2;0;1;1;1;0;0;1;1;1;0;1;0;0;0;0;0;0;0;0;0;0;0;2;0;0;0;0;0;0;2;0;0;2;2;2;2;0;2;2;2;2;2;2;0;1;0;2;0;1;"[EF(EG((FERM=0)))]"
338;KO;0;1;0;0;0;1;1;2;0;2;0;1;1;2;2;2;1;1;2;2;2;2;2;2;0;0;1;2;2;2;0;1;1;1;0;0;1;1;1;0;1;0;0;0;0;0;0;0;0;0;0;0;2;0;0;0;0;0;0;2;0;0;2;2;2;2;0;2;2;2;2;2;2;0;1;0;2;0;1;"[EF(EG((FERM=0)))]"
339;KO;0;1;0;0;0;1;1;2;0;2;0;1;1;2;2;2;1;1;2;2;2;2;2;2;0;0;2;2;2;2;0;1;1;1;0;0;1;1;1;0;1;0;0;0;0;0;0;0;0;0;0;0;2;0;0;0;0;0;0;2;0;0;2;2;2;2;0;2;2;2;2;2;2;0;1;0;2;0;1;"[EF(EG((FERM=0)))]"
340;KO;0;1;0;0;0;1;1;2;0;2;0;1;1;2;2;2;1;1;2;2;2;2;2;2;1;1;2;2;2;2;0;1;1;1;0;0;1;1;1;0;1;0;0;0;0;0;0;0;0;0;0;0;2;0;0;0;0;0;0;2;0;0;2;2;2;2;0;2;2;2;2;2;2;0;1;0;2;0;1;"[EF(EG((FERM=0)))]"
341;KO;0;1;0;0;0;1;1;2;0;2;0;1;1;2;2;2;1;1;2;2;2;2;2;2;0;0;0;0;2;2;0;1;1;1;0;0;1;0;2;0;1;0;0;0;0;0;0;0;0;0;0;0;2;0;0;0;0;0;0;2;0;0;2;2;2;2;0;2;2;2;2;2;2;0;1;0;2;0;1;"[EF(EG((FERM=0)))]"
342;KO;0;1;0;0;0;1;1;2;0;2;0;1;1;2;2;2;1;1;2;2;2;2;2;2;0;0;0;1;2;2;0;1;1;1;0;0;1;0;2;0;1;0;0;0;0;0;0;0;0;0;0;0;2;0;0;0;0;0;0;2;0;0;2;2;2;2;0;2;2;2;2;2;2;0;1;0;2;0;1;"[EF(EG((FERM=0)))]"
343;KO;0;1;0;0;0;1;1;2;0;2;0;1;1;2;2;2;1;1;2;2;2;2;2;2;0;0;1;1;2;2;0;1;1;1;0;0;1;0;2;0;1;0;0;0;0;0;0;0;0;0;0;0;2;0;0;0;0;0;0;2;0;0;2;2;2;2;0;2;2;2;2;2;2;0;1;0;2;0;1;"[EF(EG((FERM=0)))]"
344;KO;0;1;0;0;0;1;1;2;0;2;0;1;1;2;2;2;1;1;2;2;2;2;2;2;0;0;0;2;2;2;0;1;1;1;0;0;1;0;2;0;1;0;0;0;0;0;0;0;0;0;0;0;2;0;0;0;0;0;0;2;0;0;2;2;2;2;0;2;2;2;2;2;2;0;1;0;2;0;1;"[EF(EG((FERM=0)))]"
345;KO;0;1;0;0;0;1;1;2;0;2;0;1;1;2;2;2;1;1;2;2;2;2;2;2;0;0;1;2;2;2;0;1;1;1;0;0;1;0;2;0;1;0;0;0;0;0;0;0;0;0;0;0;2;0;0;0;0;0;0;2;0;0;2;2;2;2;0;2;2;2;2;2;2;0;1;0;2;0;1;"[EF(EG((FERM=0)))]"
346;KO;0;1;0;0;0;1;1;2;0;2;0;1;1;2;2;2;1;1;2;2;2;2;2;2;0;0;2;2;2;2;0;1;1;1;0;0;1;0;2;0;1;0;0;0;0;0;0;0;0;0;0;0;2;0;0;0;0;0;0;2;0;0;2;2;2;2;0;2;2;2;2;2;2;0;1;0;2;0;1;"[EF(EG((FERM=0)))]"
347;KO;0;1;0;0;0;1;1;2;0;2;0;1;1;2;2;2;1;1;2;2;2;2;2;2;0;0;0;0;2;2;0;1;1;1;0;0;1;1;2;0;1;0;0;0;0;0;0;0;0;0;0;0;2;0;0;0;0;0;0;2;0;0;2;2;2;2;0;2;2;2;2;2;2;0;1;0;2;0;1;"[EF(EG((FERM=0)))]"
348;KO;0;1;0;0;0;1;1;2;0;2;0;1;1;2;2;2;1;1;2;2;2;2;2;2;0;0;0;1;2;2;0;1;1;1;0;0;1;1;2;0;1;0;0;0;0;0;0;0;0;0;0;0;2;0;0;0;0;0;0;2;0;0;2;2;2;2;0;2;2;2;2;2;2;0;1;0;2;0;1;"[EF(EG((FERM=0)))]"
349;KO;0;1;0;0;0;1;1;2;0;2;0;1;1;2;2;2;1;1;2;2;2;2;2;2;0;0;1;1;2;2;0;1;1;1;0;0;1;1;2;0;1;0;0;0;0;0;0;0;0;0;0;0;2;0;0;0;0;0;0;2;0;0;2;2;2;2;0;2;2;2;2;2;2;0;1;0;2;0;1;"[EF(EG((FERM=0)))]"
350;KO;0;1;0;0;0;1;1;2;0;2;0;1;1;2;2;2;1;1;2;2;2;2;2;2;0;0;0;2;2;2;0;1;1;1;0;0;1;1;2;0;1;0;0;0;0;0;0;0;0;0;0;0;2;0;0;0;0;0;0;2;0;0;2;2;2;2;0;2;2;2;2;2;2;0;1;0;2;0;1;"[EF(EG((FERM=0)))]"
351;KO;0;1;0;0;0;1;1;2;0;2;0;1;1;2;2;2;1;1;2;2;2;2;2;2;0;0;1;2;2;2;0;1;1;1;0;0;1;1;2;0;1;0;0;0;0;0;0;0;0;0;0;0;2;0;0;0;0;0;0;2;0;0;2;2;2;2;0;2;2;2;2;2;2;0;1;0;2;0;1;"[EF(EG((FERM=0)))]"
352;KO;0;1;0;0;0;1;1;2;0;2;0;1;1;2;2;2;1;1;2;2;2;2;2;2;0;0;2;2;2;2;0;1;1;1;0;0;1;1;2;0;1;0;0;0;0;0;0;0;0;0;0;0;2;0;0;0;0;0;0;2;0;0;2;2;2;2;0;2;2;2;2;2;2;0;1;0;2;0;1;"[EF(EG((FERM=0)))]"
353;KO;0;1;0;0;0;1;1;2;0;2;0;1;1;2;2;2;1;1;2;2;2;2;2;2;1;1;2;2;2;2;0;1;1;1;0;0;1;1;2;0;1;0;0;0;0;0;0;0;0;0;0;0;2;0;0;0;0;0;0;2;0;0;2;2;2;2;0;2;2;2;2;2;2;0;1;0;2;0;1;"[EF(EG((FERM=0)))]"
354;KO;0;1;0;0;0;1;1;2;0;2;0;1;1;2;2;2;1;1;2;2;2;2;2;2;0;0;0;0;2;2;0;1;1;1;0;0;1;2;2;0;1;0;0;0;0;0;0;0;0;0;0;0;2;0;0;0;0;0;0;2;0;0;2;2;2;2;0;2;2;2;2;2;2;0;1;0;2;0;1;"[EF(EG((FERM=0)))]"
355;KO;0;1;0;0;0;1;1;2;0;2;0;1;1;2;2;2;1;1;2;2;2;2;2;2;0;0;0;1;2;2;0;1;1;1;0;0;1;2;2;0;1;0;0;0;0;0;0;0;0;0;0;0;2;0;0;0;0;0;0;2;0;0;2;2;2;2;0;2;2;2;2;2;2;0;1;0;2;0;1;"[EF(EG((FERM=0)))]"
356;KO;0;1;0;0;0;1;1;2;0;2;0;1;1;2;2;2;1;1;2;2;2;2;2;2;0;0;1;1;2;2;0;1;1;1;0;0;1;2;2;0;1;0;0;0;0;0;0;0;0;0;0;0;2;0;0;0;0;0;0;2;0;0;2;2;2;2;0;2;2;2;2;2;2;0;1;0;2;0;1;"[EF(EG((FERM=0)))]"
357;KO;0;1;0;0;0;1;1;2;0;2;0;1;1;2;2;2;1;1;2;2;2;2;2;2;0;0;0;2;2;2;0;1;1;1;0;0;1;2;2;0;1;0;0;0;0;0;0;0;0;0;0;0;2;0;0;0;0;0;0;2;0;0;2;2;2;2;0;2;2;2;2;2;2;0;1;0;2;0;1;"[EF(EG((FERM=0)))]"
358;KO;0;1;0;0;0;1;1;2;0;2;0;1;1;2;2;2;1;1;2;2;2;2;2;2;0;0;1;2;2;2;0;1;1;1;0;0;1;2;2;0;1;0;0;0;0;0;0;0;0;0;0;0;2;0;0;0;0;0;0;2;0;0;2;2;2;2;0;2;2;2;2;2;2;0;1;0;2;0;1;"[EF(EG((FERM=0)))]"
359;KO;0;1;0;0;0;1;1;2;0;2;0;1;1;2;2;2;1;1;2;2;2;2;2;2;0;0;2;2;2;2;0;1;1;1;0;0;1;2;2;0;1;0;0;0;0;0;0;0;0;0;0;0;2;0;0;0;0;0;0;2;0;0;2;2;2;2;0;2;2;2;2;2;2;0;1;0;2;0;1;"[EF(EG((FERM=0)))]"
360;KO;0;1;0;0;0;1;1;2;0;2;0;1;1;2;2;2;1;1;2;2;2;2;2;2;1;1;2;2;2;2;0;1;1;1;0;0;1;2;2;0;1;0;0;0;0;0;0;0;0;0;0;0;2;0;0;0;0;0;0;2;0;0;2;2;2;2;0;2;2;2;2;2;2;0;1;0;2;0;1;"[EF(EG((FERM=0)))]"
